Siesta Version  : 5.0.0-alpha-123-gfb8fd7d02
Architecture    : ----
Compiler version: GNU-11.4.0
Compiler flags  : -fallow-argument-mismatch;-O3 -march=native
PP flags        : ----
Libraries       : ----
Parallelisations: none
GEMM3M support
NetCDF support
NetCDF-4 support
Lua support

Runtime information:
* Directory : /home/fnpedron/Siesta/siesta-dev/Tests/16.TranSiesta/work/Scat_ts_n_terminal_3
* Running in serial mode.
>> Start of run:  28-SEP-2023  15:40:45

                           *********************** 
                           *  WELCOME TO SIESTA  * 
                           *********************** 

reinit: Reading from file ts_n_terminal_3.fdf

reinit: -----------------------------------------------------------------------
reinit: System Name: 
reinit: -----------------------------------------------------------------------
reinit: System Label: ts_n_terminal_3
reinit: -----------------------------------------------------------------------

initatom: Reading input for the pseudopotentials and atomic orbitals ----------
Species number:   1 Atomic number:    6 Label: C


---- Processing specs for species: C
Ground state valence configuration:   2s02  2p02
Reading pseudopotential information in formatted form from:
  /home/fnpedron/Siesta/siesta-dev/Tests/Pseudos/C.psf

---- Pseudopotential check for C 

Pseudized shells:
2s( 2.00) rc: 1.49
2p( 2.00) rc: 1.52
3d( 0.00) rc: 1.58
Valence configuration for ps generation: (assumed as above)
For C, standard SIESTA heuristics set lmxkb to 2
 (one more than the basis l, including polarization orbitals).
Use PS.lmax or PS.KBprojectors blocks to override.

<basis_specs>
===============================================================================
C                    Z=   6    Mass=  12.011        Charge= 0.17977+309
Lmxo=1 Lmxkb= 2    BasisType=split      Semic=F
L=0  Nsemic=0  Cnfigmx=2
          i=1  nzeta=1  polorb=0  (2s)
            splnorm:   0.15000    
               vcte:    40.000    
               rinn:  -0.90000    
               qcoe:    0.0000    
               qyuk:    0.0000    
               qwid:   0.10000E-01
                rcs:    0.0000    
            lambdas:    1.0000    
L=1  Nsemic=0  Cnfigmx=2
          i=1  nzeta=1  polorb=0  (2p)
            splnorm:   0.15000    
               vcte:    40.000    
               rinn:  -0.90000    
               qcoe:    0.0000    
               qyuk:    0.0000    
               qwid:   0.10000E-01
                rcs:    0.0000    
            lambdas:    1.0000    
-------------------------------------------------------------------------------
L=0  Nkbl=1  erefs: 0.17977+309
L=1  Nkbl=1  erefs: 0.17977+309
L=2  Nkbl=1  erefs: 0.17977+309
===============================================================================
</basis_specs>

Using PAO.SplitTailNorm
atom: Called for C                     (Z =   6)
Maximum radius (at nrval) set to   50.00000 8518

read_vps: Pseudopotential generation method:
read_vps: ATM3      Troullier-Martins                       
Valence charge in pseudo generation:    4.00000

xc_check: Exchange-correlation functional:
xc_check: Ceperley-Alder
V l=0 = -2*Zval/r beyond r=  1.4801
V l=1 = -2*Zval/r beyond r=  1.5087
V l=2 = -2*Zval/r beyond r=  1.5628
All V_l potentials equal beyond r=  1.5612
This should be close to max(r_c) in ps generation
All pots = -2*Zval/r beyond r=  1.5628
Using small-core scheme (local charge) for Vlocal

VLOCAL_FROM_CHLOCAL: 99.0% of the norm of Vloc inside     17.810 Ry
VLOCAL_FROM_CHLOCAL: 99.9% of the norm of Vloc inside     40.589 Ry
atom: Maximum radius for chlocal:    1.86354
atom: Maximum radius for r*vlocal+2*Zval:    1.70915

KBgen: Kleinman-Bylander projectors: 
GHOST: No ghost state for L =  0
   l= 0   rc=  1.745634   el= -1.001947   Ekb=  5.181804   kbcos=  0.300616
GHOST: No ghost state for L =  1
   l= 1   rc=  1.745634   el= -0.398598   Ekb= -4.328614   kbcos= -0.367151
GHOST: No ghost state for L =  2
   l= 2   rc=  1.934160   el=  0.013259   Ekb= -1.016084   kbcos= -0.010830

KBgen: Total number of Kleinman-Bylander projectors:   9
atom: -------------------------------------------------------------------------

atom: SANKEY-TYPE ORBITALS:

SPLIT: Orbitals with angular momentum L= 0

SPLIT: Basis orbitals for state 2s

SPLIT: PAO cut-off radius determined from an
SPLIT: energy shift=  0.020212 Ry
Split based on tail norm

   izeta = 1
                 lambda =    1.000000
                     rc =    4.130555
                 energy =   -0.979533
                kinetic =    0.906678
    potential(screened) =   -1.886211
       potential(ionic) =   -5.509172

SPLIT: Orbitals with angular momentum L= 1

SPLIT: Basis orbitals for state 2p

SPLIT: PAO cut-off radius determined from an
SPLIT: energy shift=  0.020212 Ry
Split based on tail norm

   izeta = 1
                 lambda =    1.000000
                     rc =    4.848986
                 energy =   -0.376436
                kinetic =    2.581456
    potential(screened) =   -2.957892
       potential(ionic) =   -6.483016
atom: Total number of Sankey-type orbitals:  4

atm_pop: Valence configuration (for local Pseudopot. screening):
 2s( 2.00)                                                            
 2p( 2.00)                                                            
Vna: chval, zval:    4.00000   4.00000

Vna:  Cut-off radius for the neutral-atom potential:   4.848986

atom: _________________________________________________________________________

prinput: Basis input 

PAO.BasisType split     

%block ChemicalSpeciesLabel
    1    6 C                       # Species index, atomic number, species label
%endblock ChemicalSpeciesLabel

%block PAO.Basis                 # Define Basis set
# WARNING: This information might be incomplete!
C                     2                    # Species label, number of l-shells
 n=2   0   1                         # n, l, Nzeta 
   4.131   
   1.000   
 n=2   1   1                         # n, l, Nzeta 
   4.849   
   1.000   
%endblock PAO.Basis

prinput: ----------------------------------------------------------------------

Dumping basis to NetCDF file C.ion.nc
coor:   Atomic-coordinates input format  =     Cartesian coordinates
coor:                                          (in Angstroms)

siesta: Atomic coordinates (Bohr) and species
siesta:      1.88973  11.33836  30.68915  1        1
siesta:      4.28968  11.33836  30.68915  1        2
siesta:      6.68963  11.33836  30.68915  1        3
siesta:      9.08958  11.33836  30.68915  1        4
siesta:     11.48953  11.33836  30.68915  1        5
siesta:     13.88949  11.33836  30.68915  1        6
siesta:     16.28944  11.33836  30.68915  1        7
siesta:     18.68939  11.33836  30.68915  1        8
siesta:     21.08934  11.33836  30.68915  1        9
siesta:     23.48930  11.33836  30.68915  1       10
siesta:     25.88925  11.33836  30.68915  1       11
siesta:     28.28920  11.33836  30.68915  1       12
siesta:     30.68915  11.33836   1.88973  1       13
siesta:     30.68915  11.33836   4.28968  1       14
siesta:     30.68915  11.33836   6.68963  1       15
siesta:     30.68915  11.33836   9.08958  1       16
siesta:     30.68915  11.33836  11.48953  1       17
siesta:     30.68915  11.33836  13.88949  1       18
siesta:     30.68915  11.33836  16.28944  1       19
siesta:     30.68915  11.33836  18.68939  1       20
siesta:     30.68915  11.33836  21.08934  1       21
siesta:     30.68915  11.33836  23.48930  1       22
siesta:     30.68915  11.33836  25.88925  1       23
siesta:     30.68915  11.33836  28.28920  1       24
siesta:     30.68915  11.33836  33.08910  1       25
siesta:     30.68915  11.33836  35.48906  1       26
siesta:     30.68915  11.33836  37.88901  1       27
siesta:     30.68915  11.33836  40.28896  1       28
siesta:     30.68915  11.33836  42.68891  1       29
siesta:     30.68915  11.33836  45.08887  1       30
siesta:     30.68915  11.33836  47.48882  1       31
siesta:     30.68915  11.33836  49.88877  1       32
siesta:     30.68915  11.33836  52.28872  1       33
siesta:     30.68915  11.33836  54.68867  1       34
siesta:     30.68915  11.33836  57.08863  1       35
siesta:     30.68915  11.33836  59.48858  1       36
siesta:     33.08910  11.33836  30.68915  1       37
siesta:     35.48906  11.33836  30.68915  1       38
siesta:     37.88901  11.33836  30.68915  1       39
siesta:     40.28896  11.33836  30.68915  1       40
siesta:     42.68891  11.33836  30.68915  1       41
siesta:     45.08887  11.33836  30.68915  1       42
siesta:     47.48882  11.33836  30.68915  1       43

siesta: System type = chain     

initatomlists: Number of atoms, orbitals, and projectors:     43   172   387

siesta: ******************** Simulation parameters ****************************
siesta:
siesta: The following are some of the parameters of the simulation.
siesta: A complete list of the parameters used, including default values,
siesta: can be found in file out.fdf
siesta:
redata: Spin configuration                          = none
redata: Number of spin components                   = 1
redata: Time-Reversal Symmetry                      = T
redata: Spin spiral                                 = F
redata: Long output                                 =   F
redata: Number of Atomic Species                    =        1
redata: Charge density info will appear in .RHO file
redata: Write Mulliken Pop.                         = Atomic and Orbital charges
redata: Matel table size (NRTAB)                    =     1024
redata: Mesh Cutoff                                 =    50.0000 Ry
redata: Net charge of the system                    =     0.0000 |e|
redata: Min. number of SCF Iter                     =        3
redata: Max. number of SCF Iter                     =      200
redata: SCF convergence failure will abort job
redata: SCF mix quantity                            = Hamiltonian
redata: Mix DM or H after convergence               =   F
redata: Recompute H after scf cycle                 =   F
redata: Mix DM in first SCF step                    =   T
redata: Write Pulay info on disk                    =   F
redata: New DM Occupancy tolerance                  = 0.000000000001
redata: No kicks to SCF
redata: DM Mixing Weight for Kicks                  =     0.5000
redata: Require Harris convergence for SCF          =   F
redata: Harris energy tolerance for SCF             =     0.000100 eV
redata: Require DM convergence for SCF              =   T
redata: DM tolerance for SCF                        =     0.000100
redata: Require EDM convergence for SCF             =   F
redata: EDM tolerance for SCF                       =     0.001000 eV
redata: Require H convergence for SCF               =   T
redata: Hamiltonian tolerance for SCF               =     0.001000 eV
redata: Require (free) Energy convergence for SCF   =   F
redata: (free) Energy tolerance for SCF             =     0.000100 eV
redata: Using DFT-D3 dispersion                     =   F
redata: Using Saved Data (generic)                  =   F
redata: Use continuation files for DM               =   T
redata: Neglect nonoverlap interactions             =   F
redata: Method of Calculation                       = Transiesta
redata: Fix the spin of the system                  =   F
redata: Max. number of TDED Iter                    =        1
redata: Number of TDED substeps                     =        3
redata: Dynamics option                             = Single-point calculation
mix.SCF: Pulay mixing                            = Pulay
mix.SCF:    Variant                              = stable
mix.SCF:    History steps                        = 6
mix.SCF:    Linear mixing weight                 =     0.050000
mix.SCF:    Mixing weight                        =     0.050000
mix.SCF:    SVD condition                        = 0.1000E-07
redata: Save all siesta data in one NC              =   F
redata: ***********************************************************************

%block SCF.Mixers
  Pulay
%endblock SCF.Mixers

%block SCF.Mixer.Pulay
  # Mixing method
  method pulay
  variant stable

  # Mixing options
  weight 0.0500
  weight.linear 0.0500
  history 6
%endblock SCF.Mixer.Pulay

DM_history_depth set to one: no extrapolation allowed by default for geometry relaxation
Size of DM history Fstack: 1
Total number of electrons:   172.000000
Total ionic charge:   172.000000

siesta: k-grid: Number of k-points = 1
siesta: k-point is Gamma-only

diag: Algorithm                                     = D&C
diag: Used triangular part                          = Lower
diag: Absolute tolerance                            =  0.100E-15
diag: Orthogonalization factor                      =  0.100E-05
diag: Memory factor                                 =  1.0000

 Kpoints in:            1 . Kpoints trimmed:            1

siesta: transiesta k-grid: Number of k-points = 1
siesta: transiesta k-points from Monkhorst-Pack grid
siesta: transiesta k-cutoff (effective) =     6.000 Ang
siesta: transiesta k-point supercell and displacements
siesta: k-grid:     1     0     0      0.000
siesta: k-grid:     0     1     0      0.000
siesta: k-grid:     0     0     1      0.000

ts: **************************************************************
ts: Voltage                                         =    0.0000 Volts
ts: Save H and S matrices                           =    T
ts: Electronic temperature                          =  299.986274 K
ts: Transport individually selected for electrodes
ts: Fixing Hartree potential at cell boundary       =    -C+C
ts: Fix Hartree potential fraction                  =    1.0000
ts: Hartree potential offset                        =    0.000000 eV
ts: Solution method                                 =    BTD
ts: BTD pivoting method                             =    atom+GGPS
ts: BTD creation algorithm                          =    speed
ts: SCF DM tolerance                                = 0.100E-03
ts: SCF Hamiltonian tolerance                       =    0.001000 eV
ts: SCF converge charge                             =    T
ts: SCF charge tolerance                            = 0.172E+00
ts: Initialize DM by                                =    diagon
ts: Will not correct charge fluctuations
ts: TS.SCF mixing options same as SCF
ts:           >> Electrodes << 
ts: >> el-1
ts:   Electrode cell pivoting: E1, E2, E3           = A1, A2, A3
ts:   GF file                                       = ts_n_terminal_3.TSGFel-1
ts:   GF file reuse if found                        =    T
ts:   Electrode TSHS file                           = ./ts_n_terminal_elec_x.TSHS
ts:   # atoms in electrode used / total             = 4 / 4
ts:   Electrode Bloch unity [E1 x E2 x E3]          = 1 x 1 x 1
ts:   Position in geometry                          = 1 -- 4
ts:   Semi-infinite direction for electrode         = negative wrt. E1
ts:   Chemical shift                                =    0.000000 eV
ts:   Electronic temperature                        =  299.986274 K
ts:   Gamma-only electrode                          =    T
ts:   Bulk H, S in electrode region                 =    T
ts:   Initial DM for electrodes                     = diagon
ts:   Cross-terms are updated
ts:   Manual delta-Ef shift                         =    0.000000 eV
ts:   Electrode self-energy imaginary Eta           =  0.1000E-02 eV
ts:   Electrode self-energy accuracy                =  0.1000E-12 eV
ts:   Electrode inter-layer distance (semi-inf)     =    1.2700 Ang
ts: >> el-3
ts:   Electrode cell pivoting: E1, E2, E3           = A3, A2, A1
ts:   GF file                                       = ts_n_terminal_3.TSGFel-3
ts:   GF file reuse if found                        =    T
ts:   Electrode TSHS file                           = ./ts_n_terminal_elec_z.TSHS
ts:   # atoms in electrode used / total             = 4 / 4
ts:   Electrode Bloch unity [E1 x E2 x E3]          = 1 x 1 x 1
ts:   Position in geometry                          = 13 -- 16
ts:   Semi-infinite direction for electrode         = negative wrt. E1
ts:   Chemical shift                                =    0.000000 eV
ts:   Electronic temperature                        =  299.986274 K
ts:   Gamma-only electrode                          =    T
ts:   Bulk H, S in electrode region                 =    T
ts:   Initial DM for electrodes                     = diagon
ts:   Cross-terms are updated
ts:   Manual delta-Ef shift                         =    0.000000 eV
ts:   Electrode self-energy imaginary Eta           =  0.1000E-02 eV
ts:   Electrode self-energy accuracy                =  0.1000E-12 eV
ts:   Electrode inter-layer distance (semi-inf)     =    1.2700 Ang
ts: >> el-4
ts:   Electrode cell pivoting: E1, E2, E3           = A3, A2, A1
ts:   GF file                                       = ts_n_terminal_3.TSGFel-4
ts:   GF file reuse if found                        =    T
ts:   Electrode TSHS file                           = ./ts_n_terminal_elec_z.TSHS
ts:   # atoms in electrode used / total             = 4 / 4
ts:   Electrode Bloch unity [E1 x E2 x E3]          = 1 x 1 x 1
ts:   Position in geometry                          = 33 -- 36
ts:   Semi-infinite direction for electrode         = positive wrt. E1
ts:   Chemical shift                                =    0.000000 eV
ts:   Electronic temperature                        =  299.986274 K
ts:   Gamma-only electrode                          =    T
ts:   Bulk H, S in electrode region                 =    T
ts:   Initial DM for electrodes                     = diagon
ts:   Cross-terms are updated
ts:   Manual delta-Ef shift                         =    0.000000 eV
ts:   Electrode self-energy imaginary Eta           =  0.1000E-02 eV
ts:   Electrode self-energy accuracy                =  0.1000E-12 eV
ts:   Electrode inter-layer distance (semi-inf)     =    1.2700 Ang
ts:  ----------------- Contour ----------------- 
ts:            >> Residual contour << 
ts: Pole chemical potential                         =    0.0000 eV
ts:    Chemical potential temperature               =  299.9863 K
ts:    Number of poles                              =   10
ts:    Top energy point                             =    1.6243 eV
ts:          >> Equilibrium contour << 
ts: Contour name                                    =    TS.Contour.C-high
ts:   circle contour E_min                          =  -40.0000 eV
ts:   circle contour E_max                          =   -0.2585 eV
ts:   circle contour points                         =   34
ts:   circle contour method                         =    Gauss-Legendre
ts: Contour name                                    =    TS.Contour.T-high
ts:   tail contour E_min                            =   -0.2585 eV
ts:   tail contour E_max                            =     Infinity
ts:   tail contour points                           =   12
ts:   tail contour method                           =    Gauss-Fermi (0kT)
ts: **************************************************************

************************ Begin: TS CHECKS AND WARNINGS ************************
*** TranSiesta semi-infinite directions are individual ***
*** It is heavily advised to have any electrodes with no periodicity
    in the transverse directions be located as far from any cell-boundaries
    as possible. This has to do with the electrostatic potential correction. ***
You are initializing the electrode EDM. This may result in erroneous forces on electrode atoms. Do not use forces from electrodes.
************************ End: TS CHECKS AND WARNINGS **************************


>>> TranSiesta block information for FDF-file START <<<

%block TS.ChemPots
  high
%endblock TS.ChemPots

%block TS.ChemPot.high
  mu  V
  contour.eq
   begin
    C-high
    T-high
   end
%endblock TS.ChemPot.high
%block TS.Contour.C-high
  part circle
     from -40. eV + V to -10 kT + V
      points 34
        method g-legendre
%endblock TS.Contour.C-high
%block TS.Contour.T-high
  part tail
     from prev to + inf
      points 12
        method g-fermi
%endblock TS.Contour.T-high

>>> TranSiesta block information for FDF-file END <<<


transiesta: Regions of atoms:
   ## (4): Elec.el-1
     [ 1 -- 4 ]
   ## (4): Elec.el-3
     [ 13 -- 16 ]
   ## (4): Elec.el-4
     [ 33 -- 36 ]
   -- (31): Device
     [ 5 -- 12, 17 -- 32, 37 -- 43 ]

  <sparsity:./ts_n_terminal_elec_x.TSHS
    nrows_g=16 nrows=16 sparsity=2.2500 nnzs=576, refcount: 3>
  <sparsity:(TM [ 0,--,--] of: ./ts_n_terminal_elec_x.TSHS)
    nrows_g=16 nrows=16 sparsity=1.0000 nnzs=256, refcount: 3>
  <sparsity:(TM [ 1,--,--] of: ./ts_n_terminal_elec_x.TSHS)
    nrows_g=16 nrows=16 sparsity=.6250 nnzs=160, refcount: 3>
 el-1 principal cell is perfect!

Calculating surface Green functions for: el-1
 Saving surface Green functions in: ts_n_terminal_3.TSGFel-1
 Estimated file size: 233.184 kB
 Lopez Sancho, Lopez Sancho & Rubio recursive surface self-energy calculation...
 Lopez Sancho, Lopez Sancho & Rubio: Mean/std iterations:     4.6429 /     1.6948
 Lopez Sancho, Lopez Sancho & Rubio: Min/Max iterations :          3 /         10
Done creating 'ts_n_terminal_3.TSGFel-1'.

  <sparsity:./ts_n_terminal_elec_z.TSHS
    nrows_g=16 nrows=16 sparsity=2.2500 nnzs=576, refcount: 3>
  <sparsity:(TM [ 0,--,--] of: ./ts_n_terminal_elec_z.TSHS)
    nrows_g=16 nrows=16 sparsity=1.0000 nnzs=256, refcount: 3>
  <sparsity:(TM [ 1,--,--] of: ./ts_n_terminal_elec_z.TSHS)
    nrows_g=16 nrows=16 sparsity=.6250 nnzs=160, refcount: 3>
 el-3 principal cell is perfect!

Calculating surface Green functions for: el-3
 Saving surface Green functions in: ts_n_terminal_3.TSGFel-3
 Estimated file size: 233.184 kB
 Lopez Sancho, Lopez Sancho & Rubio recursive surface self-energy calculation...
 Lopez Sancho, Lopez Sancho & Rubio: Mean/std iterations:     4.6429 /     1.6948
 Lopez Sancho, Lopez Sancho & Rubio: Min/Max iterations :          3 /         10
Done creating 'ts_n_terminal_3.TSGFel-3'.

  <sparsity:./ts_n_terminal_elec_z.TSHS
    nrows_g=16 nrows=16 sparsity=2.2500 nnzs=576, refcount: 3>
  <sparsity:(TM [ 0,--,--] of: ./ts_n_terminal_elec_z.TSHS)
    nrows_g=16 nrows=16 sparsity=1.0000 nnzs=256, refcount: 3>
  <sparsity:(TM [-1,--,--] of: ./ts_n_terminal_elec_z.TSHS)
    nrows_g=16 nrows=16 sparsity=.6250 nnzs=160, refcount: 3>
 el-4 principal cell is perfect!

Calculating surface Green functions for: el-4
 Saving surface Green functions in: ts_n_terminal_3.TSGFel-4
 Estimated file size: 233.184 kB
 Lopez Sancho, Lopez Sancho & Rubio recursive surface self-energy calculation...
 Lopez Sancho, Lopez Sancho & Rubio: Mean/std iterations:     4.6429 /     1.6948
 Lopez Sancho, Lopez Sancho & Rubio: Min/Max iterations :          3 /         10
Done creating 'ts_n_terminal_3.TSGFel-4'.


                     ====================================
                        Single-point calculation
                     ====================================

outcell: Unit cell vectors (Ang):
       31.750000    0.000000    0.000000
        0.000000   12.000000    0.000000
        0.000000    0.000000   31.750000

outcell: Cell vector modules (Ang)   :   31.750000   12.000000   31.750000
outcell: Cell angles (23,13,12) (deg):     90.0000     90.0000     90.0000
outcell: Cell volume (Ang**3)        :  12096.7500
<dSpData1D:S at geom step 0
  <sparsity:sparsity for geom step 0
    nrows_g=172 nrows=172 sparsity=.2331 nnzs=6896, refcount: 7>
  <dData1D:(new from dSpData1D) n=6896, refcount: 1>
refcount: 1>
new_DM -- step:     1
Initializing Density Matrix...

Attempting to read DM, EDM from TSDE file... Failed...
Attempting to read DM from file... Failed...
DM filled with atomic data:
<dSpData2D:DM initialized from atoms
  <sparsity:sparsity for geom step 0
    nrows_g=172 nrows=172 sparsity=.2331 nnzs=6896, refcount: 8>
  <dData2D:DM n=6896 m=1, refcount: 1>
refcount: 1>

transiesta: Initialization run using siesta

No. of atoms with KB's overlaping orbs in proc 0. Max # of overlaps:      43      32

InitMesh: MESH = 144 x 54 x 144 = 1119744
InitMesh: Mesh cutoff (required, used) =    50.000    55.966 Ry
New grid distribution [1]: sub = 2
ts-Vha: -0.12622584E-07 eV

stepf: Fermi-Dirac step function
ts-Vha:  0.22232863E+00 eV

siesta: Program's energy decomposition (eV):
siesta: Ebs     =     -2810.022166
siesta: Eions   =     10719.503541
siesta: Ena     =      2137.587089
siesta: Ekin    =      4306.497093
siesta: Enl     =      -587.490893
siesta: Eso     =         0.000000
siesta: Edftu   =         0.000000
siesta: DEna    =       204.681905
siesta: DUscf   =        17.619357
siesta: DUext   =         0.000000
siesta: Ex      =     -1647.376228
siesta: Ec      =      -248.037034
siesta: Exc     =     -1895.413262
siesta: EbV     =         0.000000
siesta: eta*DQ  =         0.000000
siesta: Emadel  =         0.000000
siesta: Emeta   =         0.000000
siesta: Emolmec =         0.000000
siesta: Ekinion =         0.000000
siesta: Eharris =     -6543.578126
siesta: Etot    =     -6536.022252
siesta: FreeEng =     -6536.022929

        iscf     Eharris(eV)        E_KS(eV)     FreeEng(eV)     dDmax    Ef(eV) dHmax(eV)
   scf:    1    -6543.578126    -6536.022252    -6536.022929  1.590196 -5.458305  9.295096
timer: Routine,Calls,Time,% = IterSCF        1       0.091  26.12
ts-Vha:  0.41798806E-01 eV
   scf:    2    -6541.831107    -6539.355241    -6539.355904  0.064430 -5.605735  5.725134
ts-Vha: -0.93499240E-01 eV
   scf:    3    -6541.583368    -6541.216641    -6541.217233  0.090667 -5.871775  2.736586
ts-Vha:  0.31118102E-01 eV
   scf:    4    -6541.539495    -6541.497205    -6541.497943  0.032577 -6.128937  2.140467
ts-Vha:  0.60485330E+00 eV
   scf:    5    -6430.535939    -6503.739610    -6503.823212  1.252120 -6.419915 23.938766
ts-Vha: -0.54718605E-01 eV
   scf:    6    -6539.841813    -6541.614497    -6541.632039  1.266458 -6.560154  1.114239
ts-Vha:  0.27321317E+00 eV
   scf:    7    -6507.663537    -6530.535537    -6530.676517  0.767808 -6.853011 13.258322
ts-Vha: -0.32271381E-01 eV
   scf:    8    -6542.874060    -6541.548389    -6541.612111  0.681276 -6.785061  1.209829
ts-Vha: -0.46850682E-01 eV
   scf:    9    -6539.425490    -6540.962065    -6540.980217  0.138858 -7.095163  3.822424
ts-Vha: -0.34143604E-01 eV
   scf:   10    -6541.414007    -6541.218806    -6541.252378  0.049204 -7.102614  3.354897
ts-Vha:  0.62649509E-01 eV
   scf:   11    -6540.037516    -6541.310338    -6541.403929  0.236157 -7.103741  1.852810
ts-Vha: -0.46795116E-02 eV
   scf:   12    -6541.356168    -6541.628500    -6541.680400  0.149130 -7.126032  1.147306
ts-Vha: -0.10768216E-01 eV
   scf:   13    -6541.484155    -6541.566773    -6541.607975  0.026989 -7.161972  1.648959
ts-Vha: -0.66012953E-02 eV
   scf:   14    -6541.691471    -6541.634483    -6541.671800  0.015688 -7.150358  1.203955
ts-Vha:  0.84082085E-02 eV
   scf:   15    -6541.735018    -6541.700224    -6541.746981  0.027764 -7.142997  0.483896
ts-Vha:  0.14593270E-01 eV
   scf:   16    -6541.709263    -6541.705944    -6541.755976  0.009493 -7.146060  0.362437
ts-Vha:  0.17107733E-01 eV
   scf:   17    -6541.709159    -6541.708114    -6541.759277  0.006974 -7.145711  0.205906
ts-Vha:  0.22189002E-01 eV
   scf:   18    -6541.706448    -6541.708433    -6541.762007  0.008994 -7.145243  0.083163
ts-Vha:  0.20578909E-01 eV
   scf:   19    -6541.712369    -6541.710588    -6541.762219  0.004454 -7.143562  0.095780
ts-Vha:  0.26517576E-01 eV
   scf:   20    -6541.699092    -6541.706587    -6541.761121  0.008219 -7.145112  0.146723
ts-Vha:  0.22577321E-01 eV
   scf:   21    -6541.713547    -6541.710893    -6541.762786  0.006681 -7.147082  0.018685
ts-Vha:  0.22413687E-01 eV
   scf:   22    -6541.711274    -6541.711078    -6541.762783  0.000534 -7.147383  0.015131
ts-Vha:  0.22452372E-01 eV
   scf:   23    -6541.711320    -6541.711201    -6541.762798  0.000453 -7.147627  0.007288
ts-Vha:  0.22490839E-01 eV
   scf:   24    -6541.711264    -6541.711233    -6541.762800  0.000117 -7.147668  0.004447
ts-Vha:  0.22567272E-01 eV
   scf:   25    -6541.711340    -6541.711302    -6541.762832  0.000169 -7.147671  0.003097
ts-Vha:  0.22590205E-01 eV
   scf:   26    -6541.711440    -6541.711371    -6541.762834  0.000253 -7.147777  0.003203
ts-Vha:  0.22565909E-01 eV
   scf:   27    -6541.711359    -6541.711365    -6541.762834  0.000043 -7.147795  0.002125
ts-Vha:  0.22525475E-01 eV
   scf:   28    -6541.711301    -6541.711318    -6541.762804  0.000070 -7.147833  0.000600

SCF Convergence by DM+H criterion
max |DM_out - DM_in|         :     0.0000701901
max |H_out - H_in|      (eV) :     0.0005999555
SCF cycle converged after 28 iterations

                     ***************************
                     *  WELCOME TO TRANSIESTA  *
                     ***************************


*** WARNING! Removed 320 elements which connect electrodes across the device region!

transiesta: We cannot assure cross-boundary connections in Gamma calculations.
transiesta: Ensure that the electrode says: Principal cell is perfect

transiesta: created H and S sparsity pattern:
  <sparsity:(M of: (UC of: T T T T T sparsity for geom step 0))
    nrows_g=172 nrows=172 sparsity=.1963 nnzs=5808, refcount: 1>

transiesta: update sparsity pattern same as H and S.

*** WARNING! Removed 320 elements which connect electrodes across the device region!


transiesta: Determining an optimal tri-matrix using: atom+GGPS
transiesta: Established a near-optimal partition for the tri-diagonal matrix.
BTD partitions (3): 
  [ 12, [80]*2 ]
transiesta: Matrix elements in % of full matrix:  93.51001 %

transiesta: [memory] electrodes (static):             12.000 kB
transiesta: [memory] global update arrays (static):   181.500 kB
transiesta: [memory] tri-diagonal matrices:           864.500 kB
transiesta: [memory] total:                           1.033 MB

transiesta: Charge distribution, target =    172.00000
Total charge                  [Q]  :    172.00000
Device                        [D]  :    121.86555
el-1                          [E1] :    15.34751
el-1                 / device [C1] :     1.38154
el-3                          [E2] :    14.60049
el-3                 / device [C2] :     1.40132
el-4                          [E3] :    14.60051
el-4                 / device [C3] :     1.40131
Other                         [O]  :      1.40178
Excess charge                [dQ]  :  3.12639E-13

ts-q:         D        E1        C1        E2        C2        E3        C3         dQ
ts-q:   121.775    15.348     1.403    14.600     1.413    14.601     1.413 -0.456E-01
ts-Vha: -0.13227613E+00 eV

siesta: Program's energy decomposition (eV):
siesta: Ebs     =     -2618.053000
siesta: Eions   =     10719.503541
siesta: Ena     =      2137.587089
siesta: Ekin    =      4318.544760
siesta: Enl     =      -593.992674
siesta: Eso     =         0.000000
siesta: Edftu   =         0.000000
siesta: DEna    =       201.813564
siesta: DUscf   =        10.612225
siesta: DUext   =         0.000000
siesta: Ex      =     -1647.294518
siesta: Ec      =      -247.997356
siesta: Exc     =     -1895.291874
siesta: EbV     =         0.000000
siesta: eta*DQ  =         0.000000
siesta: Emadel  =         0.000000
siesta: Emeta   =         0.000000
siesta: Emolmec =         0.000000
siesta: Ekinion =         0.000000
siesta: Eharris =     -6538.098707
siesta: Etot    =     -6540.230451
siesta: FreeEng =     -6540.230451
ts: E-dN      =         0.000000
ts: Band Stru =     -1937.969207
ts: Kinetic   =      3139.189326
ts: Ion-elec  =    -38910.543409
ts: Eharris   =     -7551.633582
ts: Etot      =     -7553.765326
ts: FreeEng   =     -7553.765326

        iscf     Eharris(eV)        E_KS(eV)     FreeEng(eV)     dDmax    Ef(eV) dHmax(eV)
ts-scf:    1    -7551.633582    -7553.765326    -7553.765326  0.182231 -7.147833  2.109244
timer: Routine,Calls,Time,% = TS             1       0.065   2.23
ts-q:         D        E1        C1        E2        C2        E3        C3         dQ
ts-q:   120.993    15.348     1.405    14.600     1.413    14.601     1.413 -0.827E+00
ts-Vha:  0.42786655E+00 eV
ts-scf:    2    -7529.726118    -7544.434672    -7544.434672  0.533627 -7.147833 10.516545
ts-q:         D        E1        C1        E2        C2        E3        C3         dQ
ts-q:   121.983    15.348     1.405    14.600     1.413    14.601     1.413  0.165E+00
ts-Vha: -0.17852651E+00 eV
ts-scf:    3    -7559.504370    -7555.401115    -7555.401115  0.606462 -7.147833  3.259171
ts-q:         D        E1        C1        E2        C2        E3        C3         dQ
ts-q:   122.038    15.348     1.405    14.600     1.413    14.601     1.413  0.220E+00
ts-Vha: -0.13316474E+00 eV
ts-scf:    4    -7556.385171    -7555.942752    -7555.942752  0.022548 -7.147833  3.309718
ts-q:         D        E1        C1        E2        C2        E3        C3         dQ
ts-q:   122.012    15.348     1.405    14.600     1.413    14.601     1.413  0.192E+00
ts-Vha: -0.11370966E+00 eV
ts-scf:    5    -7555.691967    -7555.818847    -7555.818847  0.007997 -7.147833  2.952881
ts-q:         D        E1        C1        E2        C2        E3        C3         dQ
ts-q:   121.957    15.348     1.405    14.600     1.412    14.601     1.412  0.136E+00
ts-Vha: -0.78366193E-01 eV
ts-scf:    6    -7555.252275    -7555.544687    -7555.544687  0.018944 -7.147833  2.098324
ts-q:         D        E1        C1        E2        C2        E3        C3         dQ
ts-q:   121.528    15.348     1.405    14.600     1.411    14.601     1.411 -0.294E+00
ts-Vha:  0.18850467E+00 eV
ts-scf:    7    -7547.015148    -7551.990954    -7551.990954  0.267105 -7.147833  4.114640
ts-q:         D        E1        C1        E2        C2        E3        C3         dQ
ts-q:   121.952    15.348     1.405    14.600     1.412    14.601     1.412  0.131E+00
ts-Vha: -0.75576695E-01 eV
ts-scf:    8    -7557.700892    -7555.521685    -7555.521685  0.265661 -7.147833  2.022162
ts-q:         D        E1        C1        E2        C2        E3        C3         dQ
ts-q:   121.905    15.348     1.405    14.600     1.411    14.601     1.411  0.836E-01
ts-Vha: -0.46846098E-01 eV
ts-scf:    9    -7554.991332    -7555.263405    -7555.263405  0.025747 -7.147833  1.324738
ts-q:         D        E1        C1        E2        C2        E3        C3         dQ
ts-q:   121.836    15.348     1.405    14.600     1.411    14.601     1.411  0.144E-01
ts-Vha: -0.36824107E-02 eV
ts-scf:   10    -7554.347431    -7554.822951    -7554.822951  0.042052 -7.147833  0.310409
ts-q:         D        E1        C1        E2        C2        E3        C3         dQ
ts-q:   121.799    15.348     1.405    14.600     1.411    14.601     1.411 -0.231E-01
ts-Vha:  0.20199701E-01 eV
ts-scf:   11    -7554.289056    -7554.561731    -7554.561731  0.023678 -7.147833  0.246378
ts-q:         D        E1        C1        E2        C2        E3        C3         dQ
ts-q:   121.827    15.348     1.405    14.600     1.411    14.601     1.411  0.467E-02
ts-Vha:  0.27366010E-02 eV
ts-scf:   12    -7554.963091    -7554.765215    -7554.765215  0.017463 -7.147833  0.157671
ts-q:         D        E1        C1        E2        C2        E3        C3         dQ
ts-q:   121.840    15.348     1.405    14.600     1.411    14.601     1.411  0.172E-01
ts-Vha: -0.54087619E-02 eV
ts-scf:   13    -7554.943442    -7554.854971    -7554.854971  0.008086 -7.147833  0.344065
ts-q:         D        E1        C1        E2        C2        E3        C3         dQ
ts-q:   121.821    15.348     1.405    14.600     1.411    14.601     1.411 -0.153E-02
ts-Vha:  0.61495844E-02 eV
ts-scf:   14    -7554.595189    -7554.726380    -7554.726380  0.011313 -7.147833  0.075715
ts-q:         D        E1        C1        E2        C2        E3        C3         dQ
ts-q:   121.809    15.348     1.405    14.600     1.411    14.601     1.411 -0.136E-01
ts-Vha:  0.13695841E-01 eV
ts-scf:   15    -7554.554836    -7554.641221    -7554.641221  0.007450 -7.147833  0.099338
ts-q:         D        E1        C1        E2        C2        E3        C3         dQ
ts-q:   121.816    15.348     1.405    14.600     1.411    14.601     1.411 -0.648E-02
ts-Vha:  0.92828504E-02 eV
ts-scf:   16    -7554.744529    -7554.693025    -7554.693025  0.004429 -7.147833  0.003316
ts-q:         D        E1        C1        E2        C2        E3        C3         dQ
ts-q:   121.816    15.348     1.405    14.600     1.411    14.601     1.411 -0.687E-02
ts-Vha:  0.95393496E-02 eV
ts-scf:   17    -7554.687656    -7554.690343    -7554.690343  0.000249 -7.147833  0.002642
ts-q:         D        E1        C1        E2        C2        E3        C3         dQ
ts-q:   121.817    15.348     1.405    14.600     1.411    14.601     1.411 -0.576E-02
ts-Vha:  0.88602325E-02 eV
ts-scf:   18    -7554.706479    -7554.698411    -7554.698411  0.000654 -7.147833  0.013621
ts-q:         D        E1        C1        E2        C2        E3        C3         dQ
ts-q:   121.816    15.348     1.405    14.600     1.411    14.601     1.411 -0.677E-02
ts-Vha:  0.95069996E-02 eV
ts-scf:   19    -7554.684378    -7554.691403    -7554.691403  0.000663 -7.147833  0.001290
ts-q:         D        E1        C1        E2        C2        E3        C3         dQ
ts-q:   121.816    15.348     1.405    14.600     1.411    14.601     1.411 -0.689E-02
ts-Vha:  0.95913700E-02 eV
ts-scf:   20    -7554.689956    -7554.690680    -7554.690680  0.000096 -7.147833  0.002830
ts-q:         D        E1        C1        E2        C2        E3        C3         dQ
ts-q:   121.816    15.348     1.405    14.600     1.411    14.601     1.411 -0.680E-02
ts-Vha:  0.95325250E-02 eV
ts-scf:   21    -7554.691966    -7554.691323    -7554.691323  0.000052 -7.147833  0.001416
ts-q:         D        E1        C1        E2        C2        E3        C3         dQ
ts-q:   121.816    15.348     1.405    14.600     1.411    14.601     1.411 -0.672E-02
ts-Vha:  0.94780246E-02 eV
ts-scf:   22    -7554.692246    -7554.691784    -7554.691784  0.000031 -7.147833  0.000131

SCF Convergence by DM+H+dQ criterion
max |DM_out - DM_in|         :     0.0000311363
max |H_out - H_in|      (eV) :     0.0001314411
     Q(TS) - Q(dev)          :    -0.0067232928
SCF cycle converged after 22 iterations

Using DM_out to compute the final energy and forces
No. of atoms with KB's overlaping orbs in proc 0. Max # of overlaps:      43      32
ts-Vha:  0.94780246E-02 eV

siesta: E_KS(eV) =            -6541.1569

siesta: E_KS - E_eggbox =     -6541.1569

siesta: Atomic forces (eV/Ang):
     1   -6.802878   -0.000000   -0.019118
     2    1.150763    0.000000    0.053738
     3    1.561348   -0.000000    0.030547
     4   -0.445999   -0.000000    0.054301
     5    0.447551    0.000000    0.049270
     6   -0.176423    0.000000    0.048359
     7    0.043310    0.000000    0.054713
     8   -0.021818    0.000000    0.051094
     9    0.169653    0.000000    0.051653
    10   -0.253887   -0.000000    0.044760
    11   -1.695693   -0.000000    0.061487
    12   11.369330    0.000000    0.023195
    13    0.047929   -0.000000    0.317365
    14    0.049085   -0.000000   -0.381524
    15    0.053633    0.000000    0.301923
    16    0.052321    0.000000   -0.263406
    17    0.049114   -0.000000    0.148377
    18    0.048105   -0.000000   -0.064315
    19    0.055192    0.000000   -0.061274
    20    0.051024    0.000000    0.071864
    21    0.054837    0.000000    0.075079
    22    0.040087    0.000000   -0.154096
    23    0.066837    0.000000   -1.809431
    24    0.047518   -0.000000   11.474939
    25    0.049364    0.000000  -11.439523
    26    0.061922    0.000000    1.665669
    27    0.044192    0.000000    0.127346
    28    0.055799    0.000000    0.068378
    29    0.046886    0.000000   -0.017307
    30    0.053924    0.000000   -0.090640
    31    0.052388    0.000000    0.002890
    32    0.051949    0.000000   -0.016534
    33    0.047694   -0.000000    0.355225
    34    0.051726   -0.000000   -0.440700
    35    0.052501    0.000000    0.283042
    36    0.051568    0.000000   -0.200445
    37  -11.731681    0.000000    0.026103
    38    2.342850   -0.000000    0.068155
    39   -0.742377    0.000000    0.051370
    40    1.193610    0.000000    0.067070
    41   -2.019805    0.000000    0.044034
    42   -1.320557   -0.000000    0.072793
    43    6.861413    0.000000    0.000668
----------------------------------------
   Tot    1.164306    0.000000    0.787091
----------------------------------------
   Max   11.731681
   Res    2.245307    sqrt( Sum f_i^2 / 3N )
----------------------------------------
   Max   11.731681    constrained

ts: Atomic forces (eV/Ang):
     1    0.000000    0.000000    0.000000
     2    0.000000    0.000000    0.000000
     3    0.000000    0.000000    0.000000
     4    0.000000    0.000000    0.000000
     5    0.447551    0.000000    0.049270
     6   -0.176423    0.000000    0.048359
     7    0.043310    0.000000    0.054713
     8   -0.021818    0.000000    0.051094
     9    0.169653    0.000000    0.051653
    10   -0.253887   -0.000000    0.044760
    11   -1.695693   -0.000000    0.061487
    12   11.369330    0.000000    0.023195
    13    0.000000    0.000000    0.000000
    14    0.000000    0.000000    0.000000
    15    0.000000    0.000000    0.000000
    16    0.000000    0.000000    0.000000
    17    0.049114   -0.000000    0.148377
    18    0.048105   -0.000000   -0.064315
    19    0.055192    0.000000   -0.061274
    20    0.051024    0.000000    0.071864
    21    0.054837    0.000000    0.075079
    22    0.040087    0.000000   -0.154096
    23    0.066837    0.000000   -1.809431
    24    0.047518   -0.000000   11.474939
    25    0.049364    0.000000  -11.439523
    26    0.061922    0.000000    1.665669
    27    0.044192    0.000000    0.127346
    28    0.055799    0.000000    0.068378
    29    0.046886    0.000000   -0.017307
    30    0.053924    0.000000   -0.090640
    31    0.052388    0.000000    0.002890
    32    0.051949    0.000000   -0.016534
    33    0.000000    0.000000    0.000000
    34    0.000000    0.000000    0.000000
    35    0.000000    0.000000    0.000000
    36    0.000000    0.000000    0.000000
    37  -11.731681    0.000000    0.026103
    38    2.342850   -0.000000    0.068155
    39   -0.742377    0.000000    0.051370
    40    1.193610    0.000000    0.067070
    41   -2.019805    0.000000    0.044034
    42   -1.320557   -0.000000    0.072793
    43    6.861413    0.000000    0.000668
----------------------------------------
   Tot    5.294616    0.000000    0.696144
----------------------------------------
   Max   11.731681
   Res    2.263093    sqrt( Sum f_i^2 / 3N )
----------------------------------------
   Max   11.731681    constrained

Stress tensor Voigt[x,y,z,yz,xz,xy] (kbar):      -12.17       -0.14      -15.05        0.00        0.00       -0.00
(Free)E + p*V (eV/cell)    -6472.3268
Target enthalpy (eV/cell)    -6541.1569

mulliken: Atomic and Orbital Populations:

Species: C                   
Atom  Qatom  Qorb
               2s      2py     2pz     2px     
   1  3.937   1.640   0.625   0.511   1.161
   2  4.130   0.872   1.093   1.043   1.122
   3  3.943   0.887   0.975   0.899   1.183
   4  4.039   0.827   1.066   1.009   1.137
   5  3.984   0.834   1.003   1.001   1.145
   6  3.993   0.847   0.996   0.995   1.155
   7  4.001   0.843   1.004   1.001   1.153
   8  3.995   0.849   0.996   0.993   1.157
   9  4.004   0.843   1.007   1.005   1.150
  10  3.992   0.854   0.992   0.988   1.158
  11  4.025   0.855   1.018   1.010   1.142
  12  3.974   1.128   0.947   0.883   1.017
  13  4.000   0.846   1.004   1.153   0.997
  14  4.000   0.846   1.006   1.154   0.994
  15  4.001   0.846   1.002   1.155   0.998
  16  4.005   0.846   1.016   1.153   0.989
  17  3.993   0.838   1.001   1.148   1.005
  18  3.996   0.846   1.001   1.154   0.994
  19  4.000   0.844   0.999   1.154   1.003
  20  3.997   0.848   1.001   1.156   0.992
  21  4.003   0.844   1.000   1.151   1.007
  22  3.994   0.852   0.999   1.157   0.986
  23  4.023   0.857   1.009   1.143   1.014
  24  3.976   1.126   0.955   1.014   0.881
  25  3.976   1.126   0.955   1.013   0.882
  26  4.023   0.857   1.009   1.143   1.014
  27  3.994   0.852   0.999   1.158   0.985
  28  4.003   0.844   1.000   1.152   1.007
  29  3.996   0.848   1.002   1.154   0.992
  30  4.000   0.845   0.999   1.153   1.004
  31  3.996   0.846   1.001   1.156   0.994
  32  3.993   0.838   1.001   1.149   1.005
  33  4.004   0.847   1.017   1.151   0.990
  34  4.001   0.846   1.002   1.154   0.999
  35  4.001   0.846   1.006   1.155   0.994
  36  4.001   0.846   1.004   1.154   0.996
  37  3.953   1.142   0.894   0.890   1.026
  38  4.038   0.842   1.009   1.056   1.132
  39  3.966   0.870   0.930   0.994   1.172
  40  4.029   0.822   1.007   1.064   1.136
  41  3.944   0.890   0.896   0.975   1.183
  42  4.133   0.870   1.042   1.100   1.122
  43  3.936   1.641   0.500   0.631   1.164

mulliken: Qtot =      171.993

transiesta: Charge distribution, target =    172.00000
Total charge                  [Q]  :    171.99328
Device                        [D]  :    121.81597
el-1                          [E1] :    15.34751
el-1                 / device [C1] :     1.40505
el-3                          [E2] :    14.60049
el-3                 / device [C2] :     1.41098
el-4                          [E3] :    14.60051
el-4                 / device [C3] :     1.41100
Other                         [O]  :      1.40178
Excess charge                [dQ]  : -6.72329E-03


siesta: Program's energy decomposition (eV):
siesta: Ebs     =     -2622.418756
siesta: Eions   =     10719.503541
siesta: Ena     =      2137.587089
siesta: Ekin    =      4320.395918
siesta: Enl     =      -594.598807
siesta: Eso     =         0.000000
siesta: Edftu   =         0.000000
siesta: DEna    =       200.907954
siesta: DUscf   =         9.895700
siesta: DUext   =         0.000000
siesta: Ex      =     -1647.780131
siesta: Ec      =      -248.061091
siesta: Exc     =     -1895.841222
siesta: EbV     =         0.000000
siesta: eta*DQ  =         0.000000
siesta: Emadel  =         0.000000
siesta: Emeta   =         0.000000
siesta: Emolmec =         0.000000
siesta: Ekinion =         0.000000
siesta: Eharris =     -6541.157372
siesta: Etot    =     -6541.156910
siesta: FreeEng =     -6541.156910
ts: E-dN      =         0.000000
ts: Band Stru =     -1941.840634
ts: Kinetic   =      3141.040484
ts: Ion-elec  =    -38909.495601
ts: Eharris   =     -7554.692246
ts: Etot      =     -7554.691784
ts: FreeEng   =     -7554.691784

siesta: Final energy (eV):
siesta:  Band Struct. =   -2622.418756
siesta:       Kinetic =    4320.395918
siesta:       Hartree =   17305.113994
siesta:         Edftu =       0.000000
siesta:       Eso     =       0.000000
siesta:    Ext. field =       0.000000
siesta:         Exch. =   -1647.780131
siesta:         Corr. =    -248.061091
siesta:     Bulk bias =       0.000000
siesta:   Exch.-corr. =   -1895.841222
siesta:  Ion-electron =  -39075.316160
siesta:       Ion-ion =   12804.490560
siesta:       Ekinion =       0.000000
siesta: D3 dispersion =       0.000000
siesta:         Total =   -6541.156910
ts:         E-dN  =       0.000000
ts:     Band Stru =   -1941.840634
ts:       Kinetic =    3141.040484
ts:      Ion-elec =  -38909.495601
ts:         Total =   -7554.691784
siesta:         Fermi =      -7.147833

siesta: Atomic forces (eV/Ang):
siesta:      1   -6.802878   -0.000000   -0.019118
siesta:      2    1.150763    0.000000    0.053738
siesta:      3    1.561348   -0.000000    0.030547
siesta:      4   -0.445999   -0.000000    0.054301
siesta:      5    0.447551    0.000000    0.049270
siesta:      6   -0.176423    0.000000    0.048359
siesta:      7    0.043310    0.000000    0.054713
siesta:      8   -0.021818    0.000000    0.051094
siesta:      9    0.169653    0.000000    0.051653
siesta:     10   -0.253887   -0.000000    0.044760
siesta:     11   -1.695693   -0.000000    0.061487
siesta:     12   11.369330    0.000000    0.023195
siesta:     13    0.047929   -0.000000    0.317365
siesta:     14    0.049085   -0.000000   -0.381524
siesta:     15    0.053633    0.000000    0.301923
siesta:     16    0.052321    0.000000   -0.263406
siesta:     17    0.049114   -0.000000    0.148377
siesta:     18    0.048105   -0.000000   -0.064315
siesta:     19    0.055192    0.000000   -0.061274
siesta:     20    0.051024    0.000000    0.071864
siesta:     21    0.054837    0.000000    0.075079
siesta:     22    0.040087    0.000000   -0.154096
siesta:     23    0.066837    0.000000   -1.809431
siesta:     24    0.047518   -0.000000   11.474939
siesta:     25    0.049364    0.000000  -11.439523
siesta:     26    0.061922    0.000000    1.665669
siesta:     27    0.044192    0.000000    0.127346
siesta:     28    0.055799    0.000000    0.068378
siesta:     29    0.046886    0.000000   -0.017307
siesta:     30    0.053924    0.000000   -0.090640
siesta:     31    0.052388    0.000000    0.002890
siesta:     32    0.051949    0.000000   -0.016534
siesta:     33    0.047694   -0.000000    0.355225
siesta:     34    0.051726   -0.000000   -0.440700
siesta:     35    0.052501    0.000000    0.283042
siesta:     36    0.051568    0.000000   -0.200445
siesta:     37  -11.731681    0.000000    0.026103
siesta:     38    2.342850   -0.000000    0.068155
siesta:     39   -0.742377    0.000000    0.051370
siesta:     40    1.193610    0.000000    0.067070
siesta:     41   -2.019805    0.000000    0.044034
siesta:     42   -1.320557   -0.000000    0.072793
siesta:     43    6.861413    0.000000    0.000668
siesta: ----------------------------------------
siesta:    Tot    1.164306    0.000000    0.787091

ts: Atomic forces (eV/Ang):
ts:      1    0.000000    0.000000    0.000000
ts:      2    0.000000    0.000000    0.000000
ts:      3    0.000000    0.000000    0.000000
ts:      4    0.000000    0.000000    0.000000
ts:      5    0.447551    0.000000    0.049270
ts:      6   -0.176423    0.000000    0.048359
ts:      7    0.043310    0.000000    0.054713
ts:      8   -0.021818    0.000000    0.051094
ts:      9    0.169653    0.000000    0.051653
ts:     10   -0.253887   -0.000000    0.044760
ts:     11   -1.695693   -0.000000    0.061487
ts:     12   11.369330    0.000000    0.023195
ts:     13    0.000000    0.000000    0.000000
ts:     14    0.000000    0.000000    0.000000
ts:     15    0.000000    0.000000    0.000000
ts:     16    0.000000    0.000000    0.000000
ts:     17    0.049114   -0.000000    0.148377
ts:     18    0.048105   -0.000000   -0.064315
ts:     19    0.055192    0.000000   -0.061274
ts:     20    0.051024    0.000000    0.071864
ts:     21    0.054837    0.000000    0.075079
ts:     22    0.040087    0.000000   -0.154096
ts:     23    0.066837    0.000000   -1.809431
ts:     24    0.047518   -0.000000   11.474939
ts:     25    0.049364    0.000000  -11.439523
ts:     26    0.061922    0.000000    1.665669
ts:     27    0.044192    0.000000    0.127346
ts:     28    0.055799    0.000000    0.068378
ts:     29    0.046886    0.000000   -0.017307
ts:     30    0.053924    0.000000   -0.090640
ts:     31    0.052388    0.000000    0.002890
ts:     32    0.051949    0.000000   -0.016534
ts:     33    0.000000    0.000000    0.000000
ts:     34    0.000000    0.000000    0.000000
ts:     35    0.000000    0.000000    0.000000
ts:     36    0.000000    0.000000    0.000000
ts:     37  -11.731681    0.000000    0.026103
ts:     38    2.342850   -0.000000    0.068155
ts:     39   -0.742377    0.000000    0.051370
ts:     40    1.193610    0.000000    0.067070
ts:     41   -2.019805    0.000000    0.044034
ts:     42   -1.320557   -0.000000    0.072793
ts:     43    6.861413    0.000000    0.000668
ts: ----------------------------------------
ts:    Tot    5.294616    0.000000    0.696144

siesta: Stress tensor (static) (eV/Ang**3):
siesta:    -0.007594    0.000000    0.000000
siesta:    -0.000000   -0.000085   -0.000000
siesta:     0.000000    0.000000   -0.009391

siesta: Cell volume =      12096.750000 Ang**3

siesta: Pressure (static):
siesta:                Solid            Molecule  Units
siesta:           0.00006197          0.00004045  Ry/Bohr**3
siesta:           0.00568997          0.00371382  eV/Ang**3
siesta:           9.11633401          5.95018909  kBar
(Free)E+ p_basis*V_orbitals  =       -6535.010189
(Free)Eharris+ p_basis*V_orbitals  =       -6535.010651

siesta: Electric dipole (a.u.)  =    0.415974   -0.000000    0.000000
siesta: Electric dipole (Debye) =    1.057301   -0.000000    0.000000

cite: Please see "ts_n_terminal_3.bib" for an exhaustive BiBTeX file.
cite: Please clearly indicate Siesta version in published work: 5.0.0-alpha-123-gfb8fd7d02
cite: This calculation has made use of the following articles
cite: which are encouraged to be cited in a published work.
        Primary SIESTA paper
          DOI: www.doi.org/10.1088/0953-8984/14/11/302
        Primary TranSiesta paper
          DOI: www.doi.org/10.1103/PhysRevB.65.165401
        TranSiesta N-electrode
          DOI: www.doi.org/10.1016/j.cpc.2016.09.022


timer: Elapsed wall time (sec) =       6.294
timer: CPU execution times (sec):

Routine            Calls   Time/call    Tot.time        %
siesta                 1       6.283       6.283   100.00
Setup                  1       0.044       0.044     0.70
bands                  1       0.000       0.000     0.00
KSV_init               1       0.000       0.000     0.00
TS_SE                  3       0.004       0.011     0.17
IterGeom               1       6.238       6.238    99.29
geom_init              1       0.214       0.214     3.41
state_init             1       0.003       0.003     0.05
hsparse                1       0.000       0.000     0.01
overlap                1       0.002       0.002     0.03
Setup_H0               1       0.117       0.117     1.86
naefs                  2       0.000       0.000     0.00
MolMec                 2       0.000       0.000     0.00
kinefsm                2       0.001       0.003     0.04
nlefsm                 2       0.006       0.012     0.19
DHSCF_Init             1       0.106       0.106     1.69
DHSCF1                 1       0.003       0.003     0.04
INITMESH               1       0.000       0.000     0.00
DHSCF2                 1       0.103       0.103     1.64
REMESH                 1       0.003       0.003     0.04
REORD                112       0.001       0.126     2.00
PHION                  1       0.030       0.030     0.48
COMM_BSC             211       0.001       0.186     2.97
POISON                53       0.045       2.407    38.31
fft                  106       0.018       1.935    30.79
setup_H               51       0.086       4.384    69.78
DHSCF                 52       0.087       4.530    72.10
DHSCF3                52       0.086       4.462    71.02
rhoofd                52       0.005       0.282     4.49
XC                    52       0.015       0.797    12.68
GXC-CellXC            52       0.012       0.609     9.70
gridxc@cellXC         52       0.012       0.609     9.69
vmat                  52       0.004       0.214     3.41
IterSCF               50       0.117       5.861    93.28
compute_dm            50       0.031       1.555    24.74
diagon                28       0.003       0.085     1.36
r-eigvec              28       0.002       0.054     0.85
r-buildHS             28       0.000       0.001     0.01
rdiag                 28       0.002       0.053     0.84
rdiag1                28       0.000       0.002     0.04
rdiag2                28       0.000       0.007     0.11
rdiag3                28       0.001       0.039     0.62
rdiag4                28       0.000       0.004     0.06
r-buildD              28       0.001       0.030     0.47
MIXER                 48       0.000       0.006     0.09
TS_init                1       0.001       0.001     0.02
pivot                  1       0.000       0.000     0.00
TS-rgn2tri             1       0.000       0.000     0.00
TS                    22       0.067       1.468    23.36
ts_expand           3696       0.000       0.002     0.02
TM_inv              1232       0.001       1.289    20.52
PostSCF                1       0.161       0.161     2.57
DHSCF4                 1       0.068       0.068     1.08
dfscf                  1       0.050       0.050     0.79
overfsm                1       0.001       0.001     0.01
writeHSX               1       0.000       0.000     0.00
state_analysis         1       0.000       0.000     0.01
siesta_move            1       0.000       0.000     0.00
Analysis               1       0.001       0.001     0.01
optical                1       0.000       0.000     0.00
  

>> End of run:  28-SEP-2023  15:40:52
Job completed
