Siesta Version  : 5.0.0-alpha-123-gfb8fd7d02
Architecture    : ----
Compiler version: GNU-11.4.0
Compiler flags  : -fallow-argument-mismatch;-O3 -march=native
PP flags        : ----
Libraries       : ----
Parallelisations: none
GEMM3M support
NetCDF support
NetCDF-4 support
Lua support

Runtime information:
* Directory : /home/fnpedron/Siesta/siesta-dev/Tests/09.MolecularDynamics/work/anneal_pt
* Running in serial mode.
>> Start of run:  28-SEP-2023  15:37:30

                           *********************** 
                           *  WELCOME TO SIESTA  * 
                           *********************** 

reinit: Reading from standard input
reinit: Dumping input in INPUT_TMP.43700
************************** Dump of input data file ****************************
%include ../../basejob.fdf
SystemLabel           anneal_pt
MD.TypeOfRun          anneal
MD.AnnealOption       TemperatureAndPressure
MD.InitialTemperature 100 K
MD.TargetTemperature  600 K
MD.TauRelax           25 fs
MD.TargetPressure     10.0 GPa
************************** End of input data file *****************************

reinit: -----------------------------------------------------------------------
reinit: System Name: Water molecules MD
reinit: -----------------------------------------------------------------------
reinit: System Label: anneal_pt
reinit: -----------------------------------------------------------------------

initatom: Reading input for the pseudopotentials and atomic orbitals ----------
Species number:   1 Atomic number:    8 Label: O
Species number:   2 Atomic number:    1 Label: H


---- Processing specs for species: O
Ground state valence configuration:   2s02  2p04
Reading pseudopotential information in formatted form from:
  /home/fnpedron/Siesta/siesta-dev/Tests/Pseudos/O.psf

---- Processing specs for species: H
Ground state valence configuration:   1s01
Reading pseudopotential information in formatted form from:
  /home/fnpedron/Siesta/siesta-dev/Tests/Pseudos/H.psf

---- Pseudopotential check for O 

Pseudized shells:
2s( 2.00) rc: 1.14
2p( 4.00) rc: 1.14
3d( 0.00) rc: 1.14
4f( 0.00) rc: 1.14
Valence configuration for ps generation: (assumed as above)

---- Pseudopotential check for H 

Pseudized shells:
1s( 1.00) rc: 1.25
2p( 0.00) rc: 1.25
3d( 0.00) rc: 1.25
4f( 0.00) rc: 1.25
Valence configuration for ps generation: (assumed as above)
For O, standard SIESTA heuristics set lmxkb to 2
 (one more than the basis l, including polarization orbitals).
Use PS.lmax or PS.KBprojectors blocks to override.
For H, standard SIESTA heuristics set lmxkb to 1
 (one more than the basis l, including polarization orbitals).
Use PS.lmax or PS.KBprojectors blocks to override.

<basis_specs>
===============================================================================
O                    Z=   8    Mass=  15.999        Charge= 0.17977+309
Lmxo=1 Lmxkb= 2    BasisType=split      Semic=F
L=0  Nsemic=0  Cnfigmx=2
          i=1  nzeta=1  polorb=0  (2s)
            splnorm:   0.15000    
               vcte:    40.000    
               rinn:  -0.90000    
               qcoe:    0.0000    
               qyuk:    0.0000    
               qwid:   0.10000E-01
                rcs:    0.0000    
            lambdas:    1.0000    
L=1  Nsemic=0  Cnfigmx=2
          i=1  nzeta=1  polorb=0  (2p)
            splnorm:   0.15000    
               vcte:    40.000    
               rinn:  -0.90000    
               qcoe:    0.0000    
               qyuk:    0.0000    
               qwid:   0.10000E-01
                rcs:    0.0000    
            lambdas:    1.0000    
-------------------------------------------------------------------------------
L=0  Nkbl=1  erefs: 0.17977+309
L=1  Nkbl=1  erefs: 0.17977+309
L=2  Nkbl=1  erefs: 0.17977+309
===============================================================================
</basis_specs>

Using PAO.SplitTailNorm
atom: Called for O                     (Z =   8)
Maximum radius (at nrval) set to   50.00000 8518

read_vps: Pseudopotential generation method:
read_vps: ATM3      Troullier-Martins                       
Valence charge in pseudo generation:    6.00000

xc_check: Exchange-correlation functional:
xc_check: Ceperley-Alder
V l=0 = -2*Zval/r beyond r=  1.1366
V l=1 = -2*Zval/r beyond r=  1.1332
V l=2 = -2*Zval/r beyond r=  1.1298
All V_l potentials equal beyond r=  1.1355
This should be close to max(r_c) in ps generation
All pots = -2*Zval/r beyond r=  1.1366
Using small-core scheme (local charge) for Vlocal

VLOCAL_FROM_CHLOCAL: 99.0% of the norm of Vloc inside     33.667 Ry
VLOCAL_FROM_CHLOCAL: 99.9% of the norm of Vloc inside     76.727 Ry
atom: Maximum radius for chlocal:    1.37241
atom: Maximum radius for r*vlocal+2*Zval:    1.25469

KBgen: Kleinman-Bylander projectors: 
GHOST: No ghost state for L =  0
   l= 0   rc=  1.293209   el= -1.742414   Ekb=  9.076872   kbcos=  0.325320
GHOST: No ghost state for L =  1
   l= 1   rc=  1.284119   el= -0.676589   Ekb= -8.194485   kbcos= -0.396010
GHOST: No ghost state for L =  2
   l= 2   rc=  1.433152   el=  0.013307   Ekb= -2.071665   kbcos= -0.003690

KBgen: Total number of Kleinman-Bylander projectors:   9
atom: -------------------------------------------------------------------------

atom: SANKEY-TYPE ORBITALS:

SPLIT: Orbitals with angular momentum L= 0

SPLIT: Basis orbitals for state 2s

SPLIT: PAO cut-off radius determined from an
SPLIT: energy shift=  0.010000 Ry
Split based on tail norm

   izeta = 1
                 lambda =    1.000000
                     rc =    3.560943
                 energy =   -1.731321
                kinetic =    1.587329
    potential(screened) =   -3.318651
       potential(ionic) =  -11.260325

SPLIT: Orbitals with angular momentum L= 1

SPLIT: Basis orbitals for state 2p

SPLIT: PAO cut-off radius determined from an
SPLIT: energy shift=  0.010000 Ry
Split based on tail norm

   izeta = 1
                 lambda =    1.000000
                     rc =    4.290924
                 energy =   -0.665565
                kinetic =    4.934810
    potential(screened) =   -5.600376
       potential(ionic) =  -13.346429
atom: Total number of Sankey-type orbitals:  4

atm_pop: Valence configuration (for local Pseudopot. screening):
 2s( 2.00)                                                            
 2p( 4.00)                                                            
Vna: chval, zval:    6.00000   6.00000

Vna:  Cut-off radius for the neutral-atom potential:   4.290924

atom: _________________________________________________________________________

<basis_specs>
===============================================================================
H                    Z=   1    Mass=  1.0080        Charge= 0.17977+309
Lmxo=0 Lmxkb= 1    BasisType=split      Semic=F
L=0  Nsemic=0  Cnfigmx=1
          i=1  nzeta=1  polorb=0  (1s)
            splnorm:   0.15000    
               vcte:    40.000    
               rinn:  -0.90000    
               qcoe:    0.0000    
               qyuk:    0.0000    
               qwid:   0.10000E-01
                rcs:    0.0000    
            lambdas:    1.0000    
-------------------------------------------------------------------------------
L=0  Nkbl=1  erefs: 0.17977+309
L=1  Nkbl=1  erefs: 0.17977+309
===============================================================================
</basis_specs>

Using PAO.SplitTailNorm
atom: Called for H                     (Z =   1)
Maximum radius (at nrval) set to   50.00000 8518

read_vps: Pseudopotential generation method:
read_vps: ATM3      Troullier-Martins                       
Valence charge in pseudo generation:    1.00000

xc_check: Exchange-correlation functional:
xc_check: Ceperley-Alder
V l=0 = -2*Zval/r beyond r=  1.2384
V l=1 = -2*Zval/r beyond r=  1.2321
All V_l potentials equal beyond r=  1.2371
This should be close to max(r_c) in ps generation
All pots = -2*Zval/r beyond r=  1.2384
Using small-core scheme (local charge) for Vlocal

VLOCAL_FROM_CHLOCAL: 99.0% of the norm of Vloc inside     28.363 Ry
VLOCAL_FROM_CHLOCAL: 99.9% of the norm of Vloc inside     64.639 Ry
atom: Maximum radius for chlocal:    1.44620
atom: Maximum radius for r*vlocal+2*Zval:    1.31026

KBgen: Kleinman-Bylander projectors: 
GHOST: No ghost state for L =  0
   l= 0   rc=  1.364142   el= -0.467325   Ekb= -2.009475   kbcos= -0.336680
GHOST: No ghost state for L =  1
   l= 1   rc=  1.430269   el=  0.007562   Ekb= -0.503817   kbcos= -0.022554

KBgen: Total number of Kleinman-Bylander projectors:   4
atom: -------------------------------------------------------------------------

atom: SANKEY-TYPE ORBITALS:

SPLIT: Orbitals with angular momentum L= 0

SPLIT: Basis orbitals for state 1s

SPLIT: PAO cut-off radius determined from an
SPLIT: energy shift=  0.010000 Ry
Split based on tail norm

   izeta = 1
                 lambda =    1.000000
                     rc =    5.285354
                 energy =   -0.456120
                kinetic =    0.900445
    potential(screened) =   -1.356565
       potential(ionic) =   -1.890080
atom: Total number of Sankey-type orbitals:  1

atm_pop: Valence configuration (for local Pseudopot. screening):
 1s( 1.00)                                                            
Vna: chval, zval:    1.00000   1.00000

Vna:  Cut-off radius for the neutral-atom potential:   5.285354

atom: _________________________________________________________________________

prinput: Basis input 

PAO.BasisType split     

%block ChemicalSpeciesLabel
    1    8 O                       # Species index, atomic number, species label
    2    1 H                       # Species index, atomic number, species label
%endblock ChemicalSpeciesLabel

%block PAO.Basis                 # Define Basis set
# WARNING: This information might be incomplete!
O                     2                    # Species label, number of l-shells
 n=2   0   1                         # n, l, Nzeta 
   3.561   
   1.000   
 n=2   1   1                         # n, l, Nzeta 
   4.291   
   1.000   
H                     1                    # Species label, number of l-shells
 n=1   0   1                         # n, l, Nzeta 
   5.285   
   1.000   
%endblock PAO.Basis

prinput: ----------------------------------------------------------------------

Dumping basis to NetCDF file O.ion.nc
Dumping basis to NetCDF file H.ion.nc
coor:   Atomic-coordinates input format  =     Cartesian coordinates
coor:                                          (in Angstroms)

siesta: WARNING: XV file not found

siesta: Atomic coordinates (Bohr) and species
siesta:      0.00000   0.00000   0.00000  1        1
siesta:      1.43052   1.10738   0.00000  2        2
siesta:     -1.43052   1.10738   0.00000  2        3
siesta:      0.00000   0.00000   5.66918  1        4
siesta:      1.43052  -1.10738   5.66918  2        5
siesta:     -1.43052  -1.10738   5.66918  2        6

siesta: System type = chain     

initatomlists: Number of atoms, orbitals, and projectors:      6    12    34

siesta: ******************** Simulation parameters ****************************
siesta:
siesta: The following are some of the parameters of the simulation.
siesta: A complete list of the parameters used, including default values,
siesta: can be found in file out.fdf
siesta:
redata: Spin configuration                          = none
redata: Number of spin components                   = 1
redata: Time-Reversal Symmetry                      = T
redata: Spin spiral                                 = F
redata: Long output                                 =   F
redata: Number of Atomic Species                    =        2
redata: Charge density info will appear in .RHO file
redata: Write Mulliken Pop.                         = NO
redata: Matel table size (NRTAB)                    =     1024
redata: Mesh Cutoff                                 =   100.0000 Ry
redata: Net charge of the system                    =     0.0000 |e|
redata: Min. number of SCF Iter                     =        0
redata: Max. number of SCF Iter                     =     1000
redata: SCF convergence failure will abort job
redata: SCF mix quantity                            = Hamiltonian
redata: Mix DM or H after convergence               =   F
redata: Recompute H after scf cycle                 =   F
redata: Mix DM in first SCF step                    =   T
redata: Write Pulay info on disk                    =   F
redata: New DM Occupancy tolerance                  = 0.000000000001
redata: No kicks to SCF
redata: DM Mixing Weight for Kicks                  =     0.5000
redata: Require Harris convergence for SCF          =   F
redata: Harris energy tolerance for SCF             =     0.000100 eV
redata: Require DM convergence for SCF              =   T
redata: DM tolerance for SCF                        =     0.000100
redata: Require EDM convergence for SCF             =   F
redata: EDM tolerance for SCF                       =     0.001000 eV
redata: Require H convergence for SCF               =   T
redata: Hamiltonian tolerance for SCF               =     0.001000 eV
redata: Require (free) Energy convergence for SCF   =   F
redata: (free) Energy tolerance for SCF             =     0.000100 eV
redata: Using DFT-D3 dispersion                     =   F
redata: Using Saved Data (generic)                  =   F
redata: Use continuation files for DM               =   F
redata: Neglect nonoverlap interactions             =   F
redata: Method of Calculation                       = Diagonalization
redata: Electronic Temperature                      =   299.9863 K
redata: Fix the spin of the system                  =   F
redata: Max. number of TDED Iter                    =        1
redata: Number of TDED substeps                     =        3
redata: Dynamics option                             = Annealing MD run
redata: Initial MD time step                        =        1
redata:   Final MD time step                        =       10
redata: Length of MD time step                      =     1.0000 fs
redata: Initial Temperature of MD run               =   100.0000 K
redata: Annealing Option                            = Temperature and Pressure
redata: Target Temperature                          =   600.0000 Kelvin
redata: Target Pressure                             =     0.0624 eV/Ang**3
redata: Annealing Relaxation Time                   =    25.0000 fs
redata: Approx. Bulk Modulus                        =     0.6241 eV/Ang**3
mix.SCF: Pulay mixing                            = Pulay
mix.SCF:    Variant                              = stable
mix.SCF:    History steps                        = 2
mix.SCF:    Linear mixing weight                 =     0.250000
mix.SCF:    Mixing weight                        =     0.250000
mix.SCF:    SVD condition                        = 0.1000E-07
redata: Save all siesta data in one NC              =   F
redata: ***********************************************************************

%block SCF.Mixers
  Pulay
%endblock SCF.Mixers

%block SCF.Mixer.Pulay
  # Mixing method
  method pulay
  variant stable

  # Mixing options
  weight 0.2500
  weight.linear 0.2500
  history 2
%endblock SCF.Mixer.Pulay

Size of DM history Fstack: 1
Total number of electrons:    16.000000
Total ionic charge:    16.000000

siesta: k-grid: Number of k-points = 1
siesta: k-point is Gamma-only

diag: Algorithm                                     = D&C
diag: Used triangular part                          = Lower
diag: Absolute tolerance                            =  0.100E-15
diag: Orthogonalization factor                      =  0.100E-05
diag: Memory factor                                 =  1.0000


ts: **************************************************************
ts: Save H and S matrices                           =    F
ts: Save DM and EDM matrices                        =    F
ts: Only save the overlap matrix S                  =    F
ts: **************************************************************

************************ Begin: TS CHECKS AND WARNINGS ************************
************************ End: TS CHECKS AND WARNINGS **************************


                     ====================================
                        Begin MD step =      1
                     ====================================

outcoor: Atomic coordinates (Ang):                          
    0.00000000    0.00000000    0.00000000   1       1  O
    0.75700000    0.58600000    0.00000000   2       2  H
   -0.75700000    0.58600000    0.00000000   2       3  H
    0.00000000    0.00000000    3.00000000   1       4  O
    0.75700000   -0.58600000    3.00000000   2       5  H
   -0.75700000   -0.58600000    3.00000000   2       6  H

outcell: Unit cell vectors (Ang):
       10.000000    0.000000    0.000000
        0.000000   10.000000    0.000000
        0.000000    0.000000    8.000000

outcell: Cell vector modules (Ang)   :   10.000000   10.000000    8.000000
outcell: Cell angles (23,13,12) (deg):     90.0000     90.0000     90.0000
outcell: Cell volume (Ang**3)        :    800.0000
Gamma-point calculation with multiply-connected orbital pairs
Folding of H and S implicitly performed
<dSpData1D:S at geom step 1
  <sparsity:sparsity for geom step 1
    nrows_g=12 nrows=12 sparsity=1.0000 nnzs=144, refcount: 7>
  <dData1D:(new from dSpData1D) n=144, refcount: 1>
refcount: 1>
new_DM -- step:     1
Initializing Density Matrix...
DM filled with atomic data:
<dSpData2D:DM initialized from atoms
  <sparsity:sparsity for geom step 1
    nrows_g=12 nrows=12 sparsity=1.0000 nnzs=144, refcount: 8>
  <dData2D:DM n=144 m=1, refcount: 1>
refcount: 1>
No. of atoms with KB's overlaping orbs in proc 0. Max # of overlaps:       6      11

InitMesh: MESH = 64 x 64 x 50 = 204800
InitMesh: Mesh cutoff (required, used) =   100.000   107.960 Ry
New grid distribution [1]: sub = 2

stepf: Fermi-Dirac step function

siesta: Program's energy decomposition (eV):
siesta: Ebs     =      -150.860226
siesta: Eions   =      1621.026762
siesta: Ena     =       348.311589
siesta: Ekin    =       762.029177
siesta: Enl     =      -142.322504
siesta: Eso     =         0.000000
siesta: Edftu   =         0.000000
siesta: DEna    =       -43.394775
siesta: DUscf   =         8.145612
siesta: DUext   =         0.000000
siesta: Ex      =      -208.215598
siesta: Ec      =       -25.484600
siesta: Exc     =      -233.700198
siesta: EbV     =         0.000000
siesta: eta*DQ  =         0.000000
siesta: Emadel  =         0.000000
siesta: Emeta   =         0.000000
siesta: Emolmec =         0.000000
siesta: Ekinion =         0.000000
siesta: Eharris =      -912.757638
siesta: Etot    =      -921.957860
siesta: FreeEng =      -921.957860

        iscf     Eharris(eV)        E_KS(eV)     FreeEng(eV)     dDmax    Ef(eV) dHmax(eV)
   scf:    1     -912.757638     -921.957860     -921.957860  0.733417 -3.359648  7.697499
timer: Routine,Calls,Time,% = IterSCF        1       0.017  13.04
   scf:    2     -925.019859     -923.619429     -923.619429  0.139222 -2.405659  4.176372
   scf:    3     -924.515320     -924.243189     -924.243189  0.153954 -1.356709  0.720183
   scf:    4     -924.257341     -924.250596     -924.250596  0.006996 -1.425281  0.533465
   scf:    5     -924.260059     -924.255895     -924.255895  0.015005 -1.528642  0.167600
   scf:    6     -924.256792     -924.256358     -924.256358  0.004055 -1.533824  0.094733
   scf:    7     -924.256616     -924.256507     -924.256507  0.002845 -1.530644  0.020744
   scf:    8     -924.256536     -924.256523     -924.256523  0.000334 -1.526977  0.014933
   scf:    9     -924.256536     -924.256531     -924.256531  0.000297 -1.523110  0.009254
   scf:   10     -924.256533     -924.256532     -924.256532  0.000152 -1.522419  0.005779
   scf:   11     -924.256533     -924.256533     -924.256533  0.000228 -1.521732  0.001906
   scf:   12     -924.256533     -924.256533     -924.256533  0.000028 -1.521803  0.001144
   scf:   13     -924.256533     -924.256533     -924.256533  0.000017 -1.521890  0.000403

SCF Convergence by DM+H criterion
max |DM_out - DM_in|         :     0.0000168156
max |H_out - H_in|      (eV) :     0.0004032171
SCF cycle converged after 13 iterations

Using DM_out to compute the final energy and forces
No. of atoms with KB's overlaping orbs in proc 0. Max # of overlaps:       6      11

siesta: E_KS(eV) =             -924.2565

siesta: E_KS - E_eggbox =      -924.2565

siesta: Atomic forces (eV/Ang):
     1   -0.000000   -7.298057   -0.083748
     2    4.939654    3.545499    0.122935
     3   -4.939654    3.545499    0.122935
     4   -0.000000    7.275470    0.989242
     5    4.938269   -3.544015   -0.118804
     6   -4.938269   -3.544015   -0.118804
----------------------------------------
   Tot   -0.000000   -0.019620    0.913758
----------------------------------------
   Max    7.298057
   Res    3.764400    sqrt( Sum f_i^2 / 3N )
----------------------------------------
   Max    7.298057    constrained

Stress tensor Voigt[x,y,z,yz,xz,xy] (kbar):      -29.95      -17.06        0.47       -0.61        0.03        0.06
(Free)E + p*V (eV/cell)     -916.5110
Target enthalpy (eV/cell)     -874.3245

siesta: Stress tensor (static) (eV/Ang**3):
        -0.018671   -0.000000    0.000000
        -0.000000   -0.010591   -0.000359
        -0.000000   -0.000359    0.000377

siesta: Pressure (static):         15.42593083  kBar

siesta: Stress tensor (total) (eV/Ang**3):
        -0.018696    0.000036    0.000020
         0.000036   -0.010646   -0.000381
         0.000020   -0.000381    0.000296

siesta: Pressure (total):         15.51222139  kBar
 Anneal: Kinetic Energy=    4.7502173451834879E-003
 Anneal: Velocity scale factor =    1.0954451150103330     
 Anneal: Cell scale factor =   0.99597389792058300     

siesta: Temp_ion =     120.000 K

                     ====================================
                        Begin MD step =      2
                     ====================================

outcoor: Atomic coordinates (Ang):                          
    0.00211939   -0.00604909   -0.00099367   1       1  O
    0.77472756    0.60651296   -0.00099222   2       2  H
   -0.77468799    0.59685732   -0.00833128   2       3  H
   -0.00100221    0.00466776    2.98915696   1       4  O
    0.77071168   -0.59073469    2.97405270   2       5  H
   -0.78848320   -0.59080457    3.01163526   2       6  H

outcell: Unit cell vectors (Ang):
        9.971945    0.000000    0.000000
        0.000000    9.966774    0.000000
        0.000000    0.000000    7.967791

outcell: Cell vector modules (Ang)   :    9.971945    9.966774    7.967791
outcell: Cell angles (23,13,12) (deg):     90.0000     90.0000     90.0000
outcell: Cell volume (Ang**3)        :    791.9038
Gamma-point calculation with multiply-connected orbital pairs
Folding of H and S implicitly performed
<dSpData1D:S at geom step 2
  <sparsity:sparsity for geom step 2
    nrows_g=12 nrows=12 sparsity=1.0000 nnzs=144, refcount: 7>
  <dData1D:(new from dSpData1D) n=144, refcount: 1>
refcount: 1>
new_DM -- step:     2
Re-using DM from previous geometries...
Number of DMs in history: 1
 DM extrapolation coefficients: 
1   1.00000
New DM after history re-use:
<dSpData2D:SpM extrapolated using coords
  <sparsity:sparsity for geom step 2
    nrows_g=12 nrows=12 sparsity=1.0000 nnzs=144, refcount: 9>
  <dData2D:(temp array for extrapolation) n=144 m=1, refcount: 1>
refcount: 1>
No. of atoms with KB's overlaping orbs in proc 0. Max # of overlaps:       6      11

InitMesh: MESH = 60 x 60 x 48 = 172800
InitMesh: Mesh cutoff (required, used) =   100.000   100.056 Ry
New grid distribution [1]: sub = 2

        iscf     Eharris(eV)        E_KS(eV)     FreeEng(eV)     dDmax    Ef(eV) dHmax(eV)
   scf:    1     -925.271399     -924.834766     -924.834766  0.061744 -1.709382  0.552856
   scf:    2     -924.790885     -924.830516     -924.830516  0.044867 -2.003227  0.684609
   scf:    3     -924.857999     -924.849386     -924.849386  0.024280 -1.841900  0.034847
   scf:    4     -924.849425     -924.849406     -924.849406  0.000554 -1.839711  0.025636
   scf:    5     -924.849447     -924.849428     -924.849428  0.001412 -1.835047  0.002948
   scf:    6     -924.849428     -924.849428     -924.849428  0.000112 -1.835025  0.001305
   scf:    7     -924.849428     -924.849428     -924.849428  0.000076 -1.835015  0.000423

SCF Convergence by DM+H criterion
max |DM_out - DM_in|         :     0.0000758922
max |H_out - H_in|      (eV) :     0.0004225767
SCF cycle converged after 7 iterations

Using DM_out to compute the final energy and forces
No. of atoms with KB's overlaping orbs in proc 0. Max # of overlaps:       6      11

siesta: E_KS(eV) =             -924.8494

siesta: Atomic forces (eV/Ang):
     1    0.166623   -5.405275   -0.003596
     2    3.485635    2.615642    0.120630
     3   -3.648019    2.682525    0.087596
     4   -0.635756    5.667395    0.008662
     5    3.955262   -3.036337   -0.205022
     6   -3.322757   -2.495753   -0.019856
----------------------------------------
   Tot    0.000988    0.028196   -0.011586
----------------------------------------
   Max    5.667395
   Res    2.823131    sqrt( Sum f_i^2 / 3N )
----------------------------------------
   Max    5.667395    constrained

Stress tensor Voigt[x,y,z,yz,xz,xy] (kbar):      -22.73      -13.81       -0.25       -0.57        0.28        0.96
(Free)E + p*V (eV/cell)     -918.7880
Target enthalpy (eV/cell)     -875.4227

siesta: Stress tensor (static) (eV/Ang**3):
        -0.014158    0.000557    0.000150
         0.000557   -0.008554   -0.000326
         0.000150   -0.000327   -0.000056

siesta: Pressure (static):         12.15950313  kBar

siesta: Stress tensor (total) (eV/Ang**3):
        -0.014189    0.000600    0.000174
         0.000600   -0.008620   -0.000353
         0.000174   -0.000353   -0.000154

siesta: Pressure (total):         12.26335961  kBar
 Anneal: Kinetic Energy=    4.4627958236704429E-002
 Anneal: Velocity scale factor =   0.99274654063995360     
 Anneal: Cell scale factor =   0.99600286297655682     

siesta: Temp_ion =     925.913 K

                     ====================================
                        Begin MD step =      3
                     ====================================

outcoor: Atomic coordinates (Ang):                          
    0.00429468   -0.01519437   -0.00196719   1       1  O
    0.82489511    0.65126597   -0.00082046   2       2  H
   -0.82635515    0.63279375   -0.01564652   2       3  H
   -0.00236329    0.01261752    2.97842653   1       4  O
    0.82139495   -0.62402951    2.94661139   2       5  H
   -0.85058068   -0.61904846    3.02268555   2       6  H

outcell: Unit cell vectors (Ang):
        9.941597    0.000000    0.000000
        0.000000    9.932665    0.000000
        0.000000    0.000000    7.935943

outcell: Cell vector modules (Ang)   :    9.941597    9.932665    7.935943
outcell: Cell angles (23,13,12) (deg):     90.0000     90.0000     90.0000
outcell: Cell volume (Ang**3)        :    783.6470
Gamma-point calculation with multiply-connected orbital pairs
Folding of H and S implicitly performed
<dSpData1D:S at geom step 3
  <sparsity:sparsity for geom step 3
    nrows_g=12 nrows=12 sparsity=1.0000 nnzs=144, refcount: 7>
  <dData1D:(new from dSpData1D) n=144, refcount: 1>
refcount: 1>
new_DM -- step:     3
Re-using DM from previous geometries...
Number of DMs in history: 1
 DM extrapolation coefficients: 
1   1.00000
New DM after history re-use:
<dSpData2D:SpM extrapolated using coords
  <sparsity:sparsity for geom step 3
    nrows_g=12 nrows=12 sparsity=1.0000 nnzs=144, refcount: 9>
  <dData2D:(temp array for extrapolation) n=144 m=1, refcount: 1>
refcount: 1>
Note: For starting DM, Qtot, Tr[D*S] =         16.00000000         15.96791759
No. of atoms with KB's overlaping orbs in proc 0. Max # of overlaps:       6      11

InitMesh: MESH = 60 x 60 x 48 = 172800
InitMesh: Mesh cutoff (required, used) =   100.000   100.668 Ry
New grid distribution [1]: sub = 2

        iscf     Eharris(eV)        E_KS(eV)     FreeEng(eV)     dDmax    Ef(eV) dHmax(eV)
   scf:    1     -926.330198     -925.466900     -925.466900  0.163596 -2.314088  1.653664
   scf:    2     -924.721656     -925.339234     -925.339234  0.153010 -3.223142  2.411990
   scf:    3     -925.741010     -925.620747     -925.620747  0.084821 -2.686025  0.096449
   scf:    4     -925.621024     -925.620896     -925.620896  0.001343 -2.672686  0.072184
   scf:    5     -925.621165     -925.621035     -925.621035  0.002624 -2.658843  0.030048
   scf:    6     -925.621106     -925.621073     -925.621073  0.001590 -2.653497  0.007008
   scf:    7     -925.621079     -925.621076     -925.621076  0.000444 -2.652647  0.002211
   scf:    8     -925.621077     -925.621076     -925.621076  0.000080 -2.652699  0.000811

SCF Convergence by DM+H criterion
max |DM_out - DM_in|         :     0.0000796882
max |H_out - H_in|      (eV) :     0.0008114829
SCF cycle converged after 8 iterations

Using DM_out to compute the final energy and forces
No. of atoms with KB's overlaping orbs in proc 0. Max # of overlaps:       6      11

siesta: E_KS(eV) =             -925.6211

siesta: Atomic forces (eV/Ang):
     1    0.151884   -1.738451    0.034594
     2    0.784567    0.847426    0.107704
     3   -0.926563    0.926948    0.094697
     4   -0.589251    2.159457   -0.028932
     5    1.133836   -1.321302   -0.162519
     6   -0.553394   -0.841265   -0.067308
----------------------------------------
   Tot    0.001079    0.032813   -0.021765
----------------------------------------
   Max    2.159457
   Res    0.919122    sqrt( Sum f_i^2 / 3N )
----------------------------------------
   Max    2.159457    constrained

Stress tensor Voigt[x,y,z,yz,xz,xy] (kbar):       -7.13       -6.50       -0.38       -0.54        0.45        0.89
(Free)E + p*V (eV/cell)     -923.3374
Target enthalpy (eV/cell)     -876.7097

siesta: Stress tensor (static) (eV/Ang**3):
        -0.003606    0.000575    0.000089
         0.000575   -0.003498   -0.000349
         0.000089   -0.000349   -0.000122

siesta: Pressure (static):          3.85869130  kBar

siesta: Stress tensor (total) (eV/Ang**3):
        -0.004452    0.000558    0.000280
         0.000559   -0.004054   -0.000336
         0.000280   -0.000337   -0.000236

siesta: Pressure (total):          4.66903946  kBar
 Anneal: Kinetic Energy=    9.7767313789930782E-002
 Anneal: Velocity scale factor =   0.98572859972541504     
 Anneal: Cell scale factor =   0.99600697344040201     

siesta: Temp_ion =    1999.838 K

                     ====================================
                        Begin MD step =      4
                     ====================================

outcoor: Atomic coordinates (Ang):                          
    0.00648067   -0.02503919   -0.00288465   1       1  O
    0.88009601    0.70214613    0.00035734   2       2  H
   -0.88433695    0.67592459   -0.02180441   2       3  H
   -0.00402401    0.02155954    2.96769463   1       4  O
    0.88037940   -0.66832289    2.91826886   2       5  H
   -0.91510206   -0.65395932    3.03232300   2       6  H

outcell: Unit cell vectors (Ang):
        9.905268    0.000000    0.000000
        0.000000    9.895914    0.000000
        0.000000    0.000000    7.904254

outcell: Cell vector modules (Ang)   :    9.905268    9.895914    7.904254
outcell: Cell angles (23,13,12) (deg):     90.0000     90.0000     90.0000
outcell: Cell volume (Ang**3)        :    774.7883
Gamma-point calculation with multiply-connected orbital pairs
Folding of H and S implicitly performed
<dSpData1D:S at geom step 4
  <sparsity:sparsity for geom step 4
    nrows_g=12 nrows=12 sparsity=1.0000 nnzs=144, refcount: 7>
  <dData1D:(new from dSpData1D) n=144, refcount: 1>
refcount: 1>
new_DM -- step:     4
Re-using DM from previous geometries...
Number of DMs in history: 1
 DM extrapolation coefficients: 
1   1.00000
New DM after history re-use:
<dSpData2D:SpM extrapolated using coords
  <sparsity:sparsity for geom step 4
    nrows_g=12 nrows=12 sparsity=1.0000 nnzs=144, refcount: 9>
  <dData2D:(temp array for extrapolation) n=144 m=1, refcount: 1>
refcount: 1>
Note: For starting DM, Qtot, Tr[D*S] =         16.00000000         15.94953751
No. of atoms with KB's overlaping orbs in proc 0. Max # of overlaps:       6      11

InitMesh: MESH = 60 x 60 x 48 = 172800
InitMesh: Mesh cutoff (required, used) =   100.000   101.408 Ry
New grid distribution [1]: sub = 2

        iscf     Eharris(eV)        E_KS(eV)     FreeEng(eV)     dDmax    Ef(eV) dHmax(eV)
   scf:    1     -925.948400     -925.335767     -925.335767  0.193295 -3.135932  2.131237
   scf:    2     -923.148867     -924.858453     -924.858453  0.238414 -4.287105  3.793699
   scf:    3     -925.921017     -925.621750     -925.621750  0.141197 -3.554085  0.126893
   scf:    4     -925.622546     -925.622229     -925.622229  0.002321 -3.529314  0.097068
   scf:    5     -925.622771     -925.622506     -925.622506  0.002660 -3.515540  0.054939
   scf:    6     -925.622764     -925.622645     -925.622645  0.003256 -3.501890  0.005702
   scf:    7     -925.622650     -925.622648     -925.622648  0.000365 -3.501034  0.001904
   scf:    8     -925.622649     -925.622649     -925.622649  0.000088 -3.500898  0.000659

SCF Convergence by DM+H criterion
max |DM_out - DM_in|         :     0.0000875193
max |H_out - H_in|      (eV) :     0.0006592469
SCF cycle converged after 8 iterations

Using DM_out to compute the final energy and forces
No. of atoms with KB's overlaping orbs in proc 0. Max # of overlaps:       6      11

siesta: E_KS(eV) =             -925.6226

siesta: Atomic forces (eV/Ang):
     1    0.070779    1.000632    0.057634
     2   -1.114375   -0.486826    0.087075
     3    1.058783   -0.405158    0.118670
     4   -0.313921   -0.480094   -0.071348
     5   -1.051556    0.090847   -0.049066
     6    1.352265    0.297398   -0.173955
----------------------------------------
   Tot    0.001974    0.016798   -0.030990
----------------------------------------
   Max    1.352265
   Res    0.632155    sqrt( Sum f_i^2 / 3N )
----------------------------------------
   Max    1.352265    constrained

Stress tensor Voigt[x,y,z,yz,xz,xy] (kbar):        5.37       -0.48       -0.46       -0.59        0.27        0.59
(Free)E + p*V (eV/cell)     -926.3367
Target enthalpy (eV/cell)     -877.2642

siesta: Stress tensor (static) (eV/Ang**3):
         0.005255    0.000331   -0.000106
         0.000330    0.000995   -0.000373
        -0.000106   -0.000373   -0.000174

siesta: Pressure (static):         -3.24522636  kBar

siesta: Stress tensor (total) (eV/Ang**3):
         0.003353    0.000370    0.000168
         0.000370   -0.000301   -0.000367
         0.000168   -0.000367   -0.000287

siesta: Pressure (total):         -1.47650443  kBar
 Anneal: Kinetic Energy=    9.3797122009510819E-002
 Anneal: Velocity scale factor =   0.98597892835290446     
 Anneal: Cell scale factor =   0.99600969093236758     

siesta: Temp_ion =    1919.602 K

                     ====================================
                        Begin MD step =      5
                     ====================================

outcoor: Atomic coordinates (Ang):                          
    0.00862600   -0.03393191   -0.00373478   1       1  O
    0.92223807    0.74636269    0.00231146   2       2  H
   -0.92968013    0.71344508   -0.02662370   2       3  H
   -0.00580851    0.02989120    2.95693433   1       4  O
    0.92676011   -0.70992227    2.89011534   2       5  H
   -0.96397178   -0.68457338    3.03960210   2       6  H

outcell: Unit cell vectors (Ang):
        9.863306    0.000000    0.000000
        0.000000    9.856503    0.000000
        0.000000    0.000000    7.872714

outcell: Cell vector modules (Ang)   :    9.863306    9.856503    7.872714
outcell: Cell angles (23,13,12) (deg):     90.0000     90.0000     90.0000
outcell: Cell volume (Ang**3)        :    765.3672
Gamma-point calculation with multiply-connected orbital pairs
Folding of H and S implicitly performed
<dSpData1D:S at geom step 5
  <sparsity:sparsity for geom step 5
    nrows_g=12 nrows=12 sparsity=1.0000 nnzs=144, refcount: 7>
  <dData1D:(new from dSpData1D) n=144, refcount: 1>
refcount: 1>
new_DM -- step:     5
Re-using DM from previous geometries...
Number of DMs in history: 1
 DM extrapolation coefficients: 
1   1.00000
New DM after history re-use:
<dSpData2D:SpM extrapolated using coords
  <sparsity:sparsity for geom step 5
    nrows_g=12 nrows=12 sparsity=1.0000 nnzs=144, refcount: 9>
  <dData2D:(temp array for extrapolation) n=144 m=1, refcount: 1>
refcount: 1>
Note: For starting DM, Qtot, Tr[D*S] =         16.00000000         15.94872761
No. of atoms with KB's overlaping orbs in proc 0. Max # of overlaps:       6      11

InitMesh: MESH = 60 x 60 x 48 = 172800
InitMesh: Mesh cutoff (required, used) =   100.000   102.273 Ry
New grid distribution [1]: sub = 2

        iscf     Eharris(eV)        E_KS(eV)     FreeEng(eV)     dDmax    Ef(eV) dHmax(eV)
   scf:    1     -925.282754     -924.916929     -924.916929  0.161140 -2.327254  1.924282
   scf:    2     -922.164222     -924.244543     -924.244543  0.246018 -4.886186  4.019994
   scf:    3     -925.499461     -925.168841     -925.168841  0.155610 -2.655809  0.121325
   scf:    4     -925.169788     -925.169423     -925.169423  0.002513 -1.100364  0.092212
   scf:    5     -925.169991     -925.169715     -925.169715  0.002418 -1.089754  0.053000
   scf:    6     -925.169982     -925.169865     -925.169865  0.003160 -1.077387  0.002812
   scf:    7     -925.169866     -925.169865     -925.169865  0.000168 -1.076945  0.001327
   scf:    8     -925.169865     -925.169865     -925.169865  0.000039 -1.076787  0.000744

SCF Convergence by DM+H criterion
max |DM_out - DM_in|         :     0.0000392175
max |H_out - H_in|      (eV) :     0.0007443263
SCF cycle converged after 8 iterations

Using DM_out to compute the final energy and forces
No. of atoms with KB's overlaping orbs in proc 0. Max # of overlaps:       6      11

siesta: E_KS(eV) =             -925.1699

siesta: Atomic forces (eV/Ang):
     1    0.005184    2.552650    0.082255
     2   -2.065211   -1.261488    0.067706
     3    2.079198   -1.171372    0.137948
     4   -0.120706   -1.982527   -0.117020
     5   -2.193875    0.931876    0.055339
     6    2.296223    0.928552   -0.264476
----------------------------------------
   Tot    0.000812   -0.002310   -0.038248
----------------------------------------
   Max    2.552650
   Res    1.373278    sqrt( Sum f_i^2 / 3N )
----------------------------------------
   Max    2.552650    constrained

Stress tensor Voigt[x,y,z,yz,xz,xy] (kbar):       14.16        4.34       -0.47       -0.65       -0.09        0.32
(Free)E + p*V (eV/cell)     -928.0413
Target enthalpy (eV/cell)     -877.3994

siesta: Stress tensor (static) (eV/Ang**3):
         0.010555    0.000098   -0.000305
         0.000098    0.004107   -0.000382
        -0.000305   -0.000382   -0.000191

siesta: Pressure (static):         -7.72807450  kBar

siesta: Stress tensor (total) (eV/Ang**3):
         0.008840    0.000199   -0.000055
         0.000199    0.002711   -0.000403
        -0.000055   -0.000403   -0.000295

siesta: Pressure (total):         -6.01091632  kBar
 Anneal: Kinetic Energy=    5.4687239607686344E-002
 Anneal: Velocity scale factor =   0.99037708342914232     
 Anneal: Cell scale factor =   0.99600975324830032     

siesta: Temp_ion =    1129.207 K

                     ====================================
                        Begin MD step =      6
                     ====================================

outcoor: Atomic coordinates (Ang):                          
    0.01071021   -0.04105314   -0.00451264   1       1  O
    0.94325690    0.77722677    0.00485178   2       2  H
   -0.95367501    0.73865688   -0.03000763   2       3  H
   -0.00761205    0.03680703    2.94612249   1       4  O
    0.95068292   -0.74136372    2.86297918   2       5  H
   -0.98932981   -0.70536847    3.04390636   2       6  H

outcell: Unit cell vectors (Ang):
        9.817605    0.000000    0.000000
        0.000000    9.815014    0.000000
        0.000000    0.000000    7.841300

outcell: Cell vector modules (Ang)   :    9.817605    9.815014    7.841300
outcell: Cell angles (23,13,12) (deg):     90.0000     90.0000     90.0000
outcell: Cell volume (Ang**3)        :    755.5871
Gamma-point calculation with multiply-connected orbital pairs
Folding of H and S implicitly performed
<dSpData1D:S at geom step 6
  <sparsity:sparsity for geom step 6
    nrows_g=12 nrows=12 sparsity=1.0000 nnzs=144, refcount: 7>
  <dData1D:(new from dSpData1D) n=144, refcount: 1>
refcount: 1>
new_DM -- step:     6
Re-using DM from previous geometries...
Number of DMs in history: 1
 DM extrapolation coefficients: 
1   1.00000
New DM after history re-use:
<dSpData2D:SpM extrapolated using coords
  <sparsity:sparsity for geom step 6
    nrows_g=12 nrows=12 sparsity=1.0000 nnzs=144, refcount: 9>
  <dData2D:(temp array for extrapolation) n=144 m=1, refcount: 1>
refcount: 1>
Note: For starting DM, Qtot, Tr[D*S] =         16.00000000         15.96390837
No. of atoms with KB's overlaping orbs in proc 0. Max # of overlaps:       6      11

InitMesh: MESH = 60 x 60 x 48 = 172800
InitMesh: Mesh cutoff (required, used) =   100.000   103.227 Ry
New grid distribution [1]: sub = 2

        iscf     Eharris(eV)        E_KS(eV)     FreeEng(eV)     dDmax    Ef(eV) dHmax(eV)
   scf:    1     -924.931684     -924.649318     -924.649318  0.103331 -1.394782  1.262593
   scf:    2     -923.101894     -924.250317     -924.250317  0.174773 -2.027912  2.896790
   scf:    3     -924.928408     -924.761205     -924.761205  0.115741 -1.587765  0.085255
   scf:    4     -924.761666     -924.761463     -924.761463  0.001254 -1.575167  0.062919
   scf:    5     -924.761793     -924.761634     -924.761634  0.001985 -1.565884  0.030190
   scf:    6     -924.761725     -924.761685     -924.761685  0.001767 -1.558633  0.002085
   scf:    7     -924.761685     -924.761685     -924.761685  0.000113 -1.558228  0.001011
   scf:    8     -924.761685     -924.761685     -924.761685  0.000029 -1.558090  0.000530

SCF Convergence by DM+H criterion
max |DM_out - DM_in|         :     0.0000293038
max |H_out - H_in|      (eV) :     0.0005299504
SCF cycle converged after 8 iterations

Using DM_out to compute the final energy and forces
No. of atoms with KB's overlaping orbs in proc 0. Max # of overlaps:       6      11

siesta: E_KS(eV) =             -924.7617

siesta: Atomic forces (eV/Ang):
     1   -0.037855    3.328278    0.108153
     2   -2.427566   -1.661338    0.053062
     3    2.487473   -1.562695    0.149964
     4   -0.011320   -2.754002   -0.158367
     5   -2.663074    1.385056    0.129412
     6    2.652361    1.249832   -0.325401
----------------------------------------
   Tot    0.000018   -0.014869   -0.043176
----------------------------------------
   Max    3.328278
   Res    1.727849    sqrt( Sum f_i^2 / 3N )
----------------------------------------
   Max    3.328278    constrained

Stress tensor Voigt[x,y,z,yz,xz,xy] (kbar):       19.46        8.08       -0.43       -0.68       -0.47        0.04
(Free)E + p*V (eV/cell)     -929.0236
Target enthalpy (eV/cell)     -877.6016

siesta: Stress tensor (static) (eV/Ang**3):
         0.012989   -0.000075   -0.000455
        -0.000076    0.006028   -0.000381
        -0.000455   -0.000381   -0.000180

siesta: Pressure (static):        -10.05981606  kBar

siesta: Stress tensor (total) (eV/Ang**3):
         0.012146    0.000028   -0.000292
         0.000027    0.005042   -0.000423
        -0.000292   -0.000423   -0.000267

siesta: Pressure (total):         -9.03717218  kBar
 Anneal: Kinetic Energy=    1.9298699237765182E-002
 Anneal: Velocity scale factor =    1.0094919720654472     
 Anneal: Cell scale factor =   0.99600788570114496     

siesta: Temp_ion =     414.019 K

                     ====================================
                        Begin MD step =      7
                     ====================================

outcoor: Atomic coordinates (Ang):                          
    0.01278954   -0.04622620   -0.00523362   1       1  O
    0.94100090    0.79235108    0.00793066   2       2  H
   -0.95384542    0.74902353   -0.03198676   2       3  H
   -0.00943829    0.04212108    2.93526698   1       4  O
    0.94909239   -0.75973271    2.83695871   2       5  H
   -0.98928572   -0.71428616    3.04530113   2       6  H

outcell: Unit cell vectors (Ang):
        9.770145    0.000000    0.000000
        0.000000    9.772172    0.000000
        0.000000    0.000000    7.809997

outcell: Cell vector modules (Ang)   :    9.770145    9.772172    7.809997
outcell: Cell angles (23,13,12) (deg):     90.0000     90.0000     90.0000
outcell: Cell volume (Ang**3)        :    745.6636
Gamma-point calculation with multiply-connected orbital pairs
Folding of H and S implicitly performed
<dSpData1D:S at geom step 7
  <sparsity:sparsity for geom step 7
    nrows_g=12 nrows=12 sparsity=1.0000 nnzs=144, refcount: 7>
  <dData1D:(new from dSpData1D) n=144, refcount: 1>
refcount: 1>
new_DM -- step:     7
Re-using DM from previous geometries...
Number of DMs in history: 1
 DM extrapolation coefficients: 
1   1.00000
New DM after history re-use:
<dSpData2D:SpM extrapolated using coords
  <sparsity:sparsity for geom step 7
    nrows_g=12 nrows=12 sparsity=1.0000 nnzs=144, refcount: 9>
  <dData2D:(temp array for extrapolation) n=144 m=1, refcount: 1>
refcount: 1>
No. of atoms with KB's overlaping orbs in proc 0. Max # of overlaps:       6      11

InitMesh: MESH = 60 x 60 x 48 = 172800
InitMesh: Mesh cutoff (required, used) =   100.000   104.189 Ry
New grid distribution [1]: sub = 2

        iscf     Eharris(eV)        E_KS(eV)     FreeEng(eV)     dDmax    Ef(eV) dHmax(eV)
   scf:    1     -924.761857     -924.633058     -924.633058  0.041631 -1.665927  0.461794
   scf:    2     -924.422003     -924.577660     -924.577660  0.066726 -1.893710  1.086795
   scf:    3     -924.668371     -924.647024     -924.647024  0.045421 -1.731819  0.031649
   scf:    4     -924.647102     -924.647064     -924.647064  0.000599 -1.728181  0.022441
   scf:    5     -924.647130     -924.647100     -924.647100  0.001182 -1.722409  0.004356
   scf:    6     -924.647103     -924.647101     -924.647101  0.000259 -1.721337  0.001215
   scf:    7     -924.647102     -924.647101     -924.647101  0.000052 -1.721124  0.000578

SCF Convergence by DM+H criterion
max |DM_out - DM_in|         :     0.0000518470
max |H_out - H_in|      (eV) :     0.0005776736
SCF cycle converged after 7 iterations

Using DM_out to compute the final energy and forces
No. of atoms with KB's overlaping orbs in proc 0. Max # of overlaps:       6      11

siesta: E_KS(eV) =             -924.6471

siesta: Atomic forces (eV/Ang):
     1   -0.066391    3.622140    0.133467
     2   -2.434400   -1.818783    0.044172
     3    2.525600   -1.717939    0.156235
     4    0.069269   -3.079854   -0.195416
     5   -2.742863    1.602149    0.173606
     6    2.648803    1.371354   -0.358577
----------------------------------------
   Tot    0.000018   -0.020932   -0.046512
----------------------------------------
   Max    3.622140
   Res    1.831922    sqrt( Sum f_i^2 / 3N )
----------------------------------------
   Max    3.622140    constrained

Stress tensor Voigt[x,y,z,yz,xz,xy] (kbar):       21.06       10.42       -0.34       -0.67       -0.76       -0.24
(Free)E + p*V (eV/cell)     -929.4779
Target enthalpy (eV/cell)     -878.1064

siesta: Stress tensor (static) (eV/Ang**3):
         0.013305   -0.000219   -0.000541
        -0.000219    0.006987   -0.000374
        -0.000540   -0.000373   -0.000145

siesta: Pressure (static):        -10.75964091  kBar

siesta: Stress tensor (total) (eV/Ang**3):
         0.013148   -0.000148   -0.000476
        -0.000148    0.006502   -0.000421
        -0.000476   -0.000421   -0.000214

siesta: Pressure (total):        -10.37973879  kBar
 Anneal: Kinetic Energy=    6.7455170571466888E-003
 Anneal: Velocity scale factor =    1.0625482870014118     
 Anneal: Cell scale factor =   0.99600492307042965     

siesta: Temp_ion =     160.324 K

                     ====================================
                        Begin MD step =      8
                     ====================================

outcoor: Atomic coordinates (Ang):                          
    0.01507109   -0.04970488   -0.00595566   1       1  O
    0.91436774    0.79115136    0.01181835   2       2  H
   -0.92899984    0.74352004   -0.03262837   2       3  H
   -0.01143415    0.04610113    2.92443063   1       4  O
    0.92008315   -0.76433059    2.81103262   2       5  H
   -0.96297374   -0.71066077    3.04468264   2       6  H

outcell: Unit cell vectors (Ang):
        9.722660    0.000000    0.000000
        0.000000    9.728705    0.000000
        0.000000    0.000000    7.778795

outcell: Cell vector modules (Ang)   :    9.722660    9.728705    7.778795
outcell: Cell angles (23,13,12) (deg):     90.0000     90.0000     90.0000
outcell: Cell volume (Ang**3)        :    735.7876
Gamma-point calculation with multiply-connected orbital pairs
Folding of H and S implicitly performed
<dSpData1D:S at geom step 8
  <sparsity:sparsity for geom step 8
    nrows_g=12 nrows=12 sparsity=1.0000 nnzs=144, refcount: 7>
  <dData1D:(new from dSpData1D) n=144, refcount: 1>
refcount: 1>
new_DM -- step:     8
Re-using DM from previous geometries...
Number of DMs in history: 1
 DM extrapolation coefficients: 
1   1.00000
New DM after history re-use:
<dSpData2D:SpM extrapolated using coords
  <sparsity:sparsity for geom step 8
    nrows_g=12 nrows=12 sparsity=1.0000 nnzs=144, refcount: 9>
  <dData2D:(temp array for extrapolation) n=144 m=1, refcount: 1>
refcount: 1>
No. of atoms with KB's overlaping orbs in proc 0. Max # of overlaps:       6      11

InitMesh: MESH = 60 x 60 x 48 = 172800
InitMesh: Mesh cutoff (required, used) =   100.000   105.122 Ry
New grid distribution [1]: sub = 2

        iscf     Eharris(eV)        E_KS(eV)     FreeEng(eV)     dDmax    Ef(eV) dHmax(eV)
   scf:    1     -924.632392     -924.875710     -924.875710  0.023192 -1.626806  0.376250
   scf:    2     -924.748160     -924.842660     -924.842660  0.052117 -1.455314  0.888001
   scf:    3     -924.897461     -924.884753     -924.884753  0.036154 -1.576719  0.035473
   scf:    4     -924.884839     -924.884797     -924.884797  0.000601 -1.578398  0.024538
   scf:    5     -924.884864     -924.884835     -924.884835  0.001306 -1.582936  0.002525
   scf:    6     -924.884836     -924.884835     -924.884835  0.000085 -1.583222  0.001414
   scf:    7     -924.884836     -924.884836     -924.884836  0.000068 -1.583373  0.000410

SCF Convergence by DM+H criterion
max |DM_out - DM_in|         :     0.0000680033
max |H_out - H_in|      (eV) :     0.0004100939
SCF cycle converged after 7 iterations

Using DM_out to compute the final energy and forces
No. of atoms with KB's overlaping orbs in proc 0. Max # of overlaps:       6      11

siesta: E_KS(eV) =             -924.8848

siesta: Atomic forces (eV/Ang):
     1   -0.085935    3.509128    0.160130
     2   -2.118641   -1.762558    0.043227
     3    2.232948   -1.674525    0.157111
     4    0.169890   -3.041698   -0.235135
     5   -2.504349    1.637482    0.185472
     6    2.307575    1.309556   -0.357540
----------------------------------------
   Tot    0.001488   -0.022614   -0.046736
----------------------------------------
   Max    3.509128
   Res    1.719983    sqrt( Sum f_i^2 / 3N )
----------------------------------------
   Max    3.509128    constrained

Stress tensor Voigt[x,y,z,yz,xz,xy] (kbar):       18.48       10.95       -0.23       -0.64       -0.90       -0.54
(Free)E + p*V (eV/cell)     -929.3547
Target enthalpy (eV/cell)     -878.9606

siesta: Stress tensor (static) (eV/Ang**3):
         0.011604   -0.000371   -0.000542
        -0.000371    0.006987   -0.000360
        -0.000542   -0.000360   -0.000087

siesta: Pressure (static):         -9.88228905  kBar

siesta: Stress tensor (total) (eV/Ang**3):
         0.011536   -0.000334   -0.000565
        -0.000334    0.006834   -0.000402
        -0.000565   -0.000402   -0.000145

siesta: Pressure (total):         -9.73320853  kBar
 Anneal: Kinetic Energy=    2.0370608168014483E-002
 Anneal: Velocity scale factor =    1.0079511613962064     
 Anneal: Cell scale factor =   0.99600047878743680     

siesta: Temp_ion =     435.682 K

                     ====================================
                        Begin MD step =      9
                     ====================================

outcoor: Atomic coordinates (Ang):                          
    0.01731783   -0.05108616   -0.00658663   1       1  O
    0.86740892    0.77304953    0.01615224   2       2  H
   -0.88274499    0.72192824   -0.03176662   2       3  H
   -0.01334191    0.04826993    2.91349275   1       4  O
    0.86703088   -0.75326639    2.78680715   2       5  H
   -0.91453363   -0.69446408    3.04075403   2       6  H

outcell: Unit cell vectors (Ang):
        9.676837    0.000000    0.000000
        0.000000    9.685379    0.000000
        0.000000    0.000000    7.747684

outcell: Cell vector modules (Ang)   :    9.676837    9.685379    7.747684
outcell: Cell angles (23,13,12) (deg):     90.0000     90.0000     90.0000
outcell: Cell volume (Ang**3)        :    726.1425
Gamma-point calculation with multiply-connected orbital pairs
Folding of H and S implicitly performed
<dSpData1D:S at geom step 9
  <sparsity:sparsity for geom step 9
    nrows_g=12 nrows=12 sparsity=1.0000 nnzs=144, refcount: 7>
  <dData1D:(new from dSpData1D) n=144, refcount: 1>
refcount: 1>
new_DM -- step:     9
Re-using DM from previous geometries...
Number of DMs in history: 1
 DM extrapolation coefficients: 
1   1.00000
New DM after history re-use:
<dSpData2D:SpM extrapolated using coords
  <sparsity:sparsity for geom step 9
    nrows_g=12 nrows=12 sparsity=1.0000 nnzs=144, refcount: 9>
  <dData2D:(temp array for extrapolation) n=144 m=1, refcount: 1>
refcount: 1>
Note: For starting DM, Qtot, Tr[D*S] =         16.00000000         16.03135722
No. of atoms with KB's overlaping orbs in proc 0. Max # of overlaps:       6      11

InitMesh: MESH = 60 x 60 x 48 = 172800
InitMesh: Mesh cutoff (required, used) =   100.000   106.065 Ry
New grid distribution [1]: sub = 2

        iscf     Eharris(eV)        E_KS(eV)     FreeEng(eV)     dDmax    Ef(eV) dHmax(eV)
   scf:    1     -924.479405     -925.279717     -925.279717  0.070698 -4.366123  1.008810
   scf:    2     -924.504317     -925.087184     -925.087184  0.129069 -0.782030  2.133260
   scf:    3     -925.428518     -925.346575     -925.346575  0.087344 -1.122172  0.094431
   scf:    4     -925.347075     -925.346835     -925.346835  0.001879 -1.126606  0.064701
   scf:    5     -925.347217     -925.347049     -925.347049  0.003493 -1.139671  0.010598
   scf:    6     -925.347058     -925.347054     -925.347054  0.000470 -1.143304  0.003188
   scf:    7     -925.347055     -925.347054     -925.347054  0.000096 -1.144008  0.001872
   scf:    8     -925.347055     -925.347054     -925.347054  0.000043 -1.144088  0.001288
   scf:    9     -925.347055     -925.347055     -925.347055  0.000060 -1.144118  0.000434

SCF Convergence by DM+H criterion
max |DM_out - DM_in|         :     0.0000595004
max |H_out - H_in|      (eV) :     0.0004336402
SCF cycle converged after 9 iterations

Using DM_out to compute the final energy and forces
No. of atoms with KB's overlaping orbs in proc 0. Max # of overlaps:       6      11

siesta: E_KS(eV) =             -925.3471

siesta: Atomic forces (eV/Ang):
     1   -0.088674    2.831842    0.182057
     2   -1.386904   -1.404299    0.059121
     3    1.506469   -1.357814    0.147341
     4    0.314087   -2.494056   -0.275373
     5   -1.865908    1.417209    0.132296
     6    1.524689    0.986155   -0.289483
----------------------------------------
   Tot    0.003759   -0.020962   -0.044041
----------------------------------------
   Max    2.831842
   Res    1.320303    sqrt( Sum f_i^2 / 3N )
----------------------------------------
   Max    2.831842    constrained

Stress tensor Voigt[x,y,z,yz,xz,xy] (kbar):       11.20        8.93       -0.10       -0.59       -0.79       -0.83
(Free)E + p*V (eV/cell)     -928.3723
Target enthalpy (eV/cell)     -880.0248

siesta: Stress tensor (static) (eV/Ang**3):
         0.007643   -0.000530   -0.000400
        -0.000530    0.005641   -0.000350
        -0.000400   -0.000350   -0.000017

siesta: Pressure (static):         -7.08525822  kBar

siesta: Stress tensor (total) (eV/Ang**3):
         0.006988   -0.000516   -0.000492
        -0.000516    0.005574   -0.000367
        -0.000492   -0.000367   -0.000064

siesta: Pressure (total):         -6.67490784  kBar
 Anneal: Kinetic Energy=    4.9143028252570713E-002
 Anneal: Velocity scale factor =   0.99156374232663791     
 Anneal: Cell scale factor =   0.99599514636667563     

siesta: Temp_ion =    1017.161 K

                     ====================================
                        Begin MD step =     10
                     ====================================

outcoor: Atomic coordinates (Ang):                          
    0.01945746   -0.05074633   -0.00709298   1       1  O
    0.80874114    0.74214152    0.02093642   2       2  H
   -0.82363645    0.68805842   -0.02953053   2       3  H
   -0.01501627    0.04889864    2.90240329   1       4  O
    0.79790053   -0.72909439    2.76418450   2       5  H
   -0.85313082   -0.66936376    3.03391673   2       6  H

outcell: Unit cell vectors (Ang):
        9.634253    0.000000    0.000000
        0.000000    9.643187    0.000000
        0.000000    0.000000    7.716655

outcell: Cell vector modules (Ang)   :    9.634253    9.643187    7.716655
outcell: Cell angles (23,13,12) (deg):     90.0000     90.0000     90.0000
outcell: Cell volume (Ang**3)        :    716.9151
Gamma-point calculation with multiply-connected orbital pairs
Folding of H and S implicitly performed
<dSpData1D:S at geom step 10
  <sparsity:sparsity for geom step 10
    nrows_g=12 nrows=12 sparsity=1.0000 nnzs=144, refcount: 7>
  <dData1D:(new from dSpData1D) n=144, refcount: 1>
refcount: 1>
new_DM -- step:    10
Re-using DM from previous geometries...
Number of DMs in history: 1
 DM extrapolation coefficients: 
1   1.00000
New DM after history re-use:
<dSpData2D:SpM extrapolated using coords
  <sparsity:sparsity for geom step 10
    nrows_g=12 nrows=12 sparsity=1.0000 nnzs=144, refcount: 9>
  <dData2D:(temp array for extrapolation) n=144 m=1, refcount: 1>
refcount: 1>
Note: For starting DM, Qtot, Tr[D*S] =         16.00000000         16.03446595
No. of atoms with KB's overlaping orbs in proc 0. Max # of overlaps:       6      11

InitMesh: MESH = 60 x 60 x 48 = 172800
InitMesh: Mesh cutoff (required, used) =   100.000   106.937 Ry
New grid distribution [1]: sub = 2

        iscf     Eharris(eV)        E_KS(eV)     FreeEng(eV)     dDmax    Ef(eV) dHmax(eV)
   scf:    1     -924.286839     -925.582802     -925.582802  0.103821 -3.913977  1.310606
   scf:    2     -924.664305     -925.375727     -925.375727  0.148461 -3.237781  2.384182
   scf:    3     -925.803168     -925.693543     -925.693543  0.096007 -3.686759  0.125796
   scf:    4     -925.694359     -925.693968     -925.693968  0.002585 -3.694176  0.086844
   scf:    5     -925.694565     -925.694297     -925.694297  0.004918 -3.715435  0.017602
   scf:    6     -925.694318     -925.694309     -925.694309  0.000710 -3.721830  0.006097
   scf:    7     -925.694311     -925.694310     -925.694310  0.000148 -3.723705  0.003193
   scf:    8     -925.694311     -925.694310     -925.694310  0.000072 -3.723770  0.002199
   scf:    9     -925.694311     -925.694311     -925.694311  0.000100 -3.723707  0.000743
   scf:   10     -925.694311     -925.694311     -925.694311  0.000040 -3.723616  0.000187

SCF Convergence by DM+H criterion
max |DM_out - DM_in|         :     0.0000395156
max |H_out - H_in|      (eV) :     0.0001868569
SCF cycle converged after 10 iterations

Using DM_out to compute the final energy and forces
No. of atoms with KB's overlaping orbs in proc 0. Max # of overlaps:       6      11

siesta: E_KS(eV) =             -925.6943

siesta: Atomic forces (eV/Ang):
     1   -0.051575    1.312209    0.191815
     2   -0.071995   -0.595731    0.105488
     3    0.155880   -0.635923    0.121647
     4    0.484386   -1.171206   -0.307930
     5   -0.643842    0.788052   -0.046520
     6    0.132970    0.286814   -0.103214
----------------------------------------
   Tot    0.005825   -0.015786   -0.038714
----------------------------------------
   Max    1.312209
   Res    0.549016    sqrt( Sum f_i^2 / 3N )
----------------------------------------
   Max    1.312209    constrained

Stress tensor Voigt[x,y,z,yz,xz,xy] (kbar):       -0.65        3.62        0.02       -0.55       -0.25       -1.00
(Free)E + p*V (eV/cell)     -926.1394
Target enthalpy (eV/cell)     -880.9480

siesta: Stress tensor (static) (eV/Ang**3):
         0.001145   -0.000646   -0.000036
        -0.000646    0.002490   -0.000369
        -0.000036   -0.000369    0.000045

siesta: Pressure (static):         -1.96564174  kBar

siesta: Stress tensor (total) (eV/Ang**3):
        -0.000406   -0.000623   -0.000159
        -0.000623    0.002257   -0.000345
        -0.000159   -0.000345    0.000012

siesta: Pressure (total):         -0.99478337  kBar
 Anneal: Kinetic Energy=    6.8234915272513574E-002
 Anneal: Velocity scale factor =   0.98828525930994582     
 Anneal: Cell scale factor =   0.99599083976759650     

siesta: Temp_ion =    1403.000 K

siesta: Program's energy decomposition (eV):
siesta: Ebs     =      -188.087909
siesta: Eions   =      1621.026762
siesta: Ena     =       347.554578
siesta: Ekin    =       685.435250
siesta: Enl     =      -113.543195
siesta: Eso     =         0.000000
siesta: Edftu   =         0.000000
siesta: DEna    =        -7.552568
siesta: DUscf   =         3.200843
siesta: DUext   =         0.000000
siesta: Ex      =      -194.958619
siesta: Ec      =       -24.803838
siesta: Exc     =      -219.762457
siesta: EbV     =         0.000000
siesta: eta*DQ  =         0.000000
siesta: Emadel  =         0.000000
siesta: Emeta   =         0.000000
siesta: Emolmec =         0.000000
siesta: Ekinion =         0.906759
siesta: Eharris =      -924.787552
siesta: Etot    =      -924.787552
siesta: FreeEng =      -924.787552

siesta: Final energy (eV):
siesta:  Band Struct. =    -188.087909
siesta:       Kinetic =     685.435250
siesta:       Hartree =     916.492156
siesta:         Edftu =       0.000000
siesta:       Eso     =       0.000000
siesta:    Ext. field =       0.000000
siesta:         Exch. =    -194.958619
siesta:         Corr. =     -24.803838
siesta:     Bulk bias =       0.000000
siesta:   Exch.-corr. =    -219.762457
siesta:  Ion-electron =   -2418.597493
siesta:       Ion-ion =     110.738233
siesta:       Ekinion =       0.906759
siesta: D3 dispersion =       0.000000
siesta:         Total =    -924.787552
siesta:         Fermi =      -3.723616

siesta: Atomic forces (eV/Ang):
siesta:      1   -0.051575    1.312209    0.191815
siesta:      2   -0.071995   -0.595731    0.105488
siesta:      3    0.155880   -0.635923    0.121647
siesta:      4    0.484386   -1.171206   -0.307930
siesta:      5   -0.643842    0.788052   -0.046520
siesta:      6    0.132970    0.286814   -0.103214
siesta: ----------------------------------------
siesta:    Tot    0.005825   -0.015786   -0.038714

siesta: Stress tensor (static) (eV/Ang**3):
siesta:     0.001145   -0.000646   -0.000036
siesta:    -0.000646    0.002490   -0.000369
siesta:    -0.000036   -0.000369    0.000045

siesta: Cell volume =        716.915105 Ang**3

siesta: Pressure (static):
siesta:                Solid            Molecule  Units
siesta:          -0.00001336          0.00000626  Ry/Bohr**3
siesta:          -0.00122686          0.00057446  eV/Ang**3
siesta:          -1.96564174          0.92037966  kBar
(Free)E+ p_basis*V_orbitals  =        -925.044297
(Free)Eharris+ p_basis*V_orbitals  =        -925.044297

siesta: Electric dipole (a.u.)  =   -0.049636    0.013203   -0.000000
siesta: Electric dipole (Debye) =   -0.126162    0.033558   -0.000000

cite: Please see "anneal_pt.bib" for an exhaustive BiBTeX file.
cite: Please clearly indicate Siesta version in published work: 5.0.0-alpha-123-gfb8fd7d02
cite: This calculation has made use of the following articles
cite: which are encouraged to be cited in a published work.
        Primary SIESTA paper
          DOI: www.doi.org/10.1088/0953-8984/14/11/302


timer: Elapsed wall time (sec) =       1.692
timer: CPU execution times (sec):

Routine            Calls   Time/call    Tot.time        %
siesta                 1       1.692       1.692   100.00
Setup                  1       0.055       0.055     3.26
bands                  1       0.000       0.000     0.00
KSV_init               1       0.000       0.000     0.00
IterGeom              10       0.164       1.636    96.72
geom_init             10       0.030       0.304    17.99
state_init            10       0.000       0.005     0.28
hsparse               10       0.000       0.000     0.02
overlap               10       0.000       0.002     0.14
Setup_H0              10       0.018       0.177    10.45
naefs                 20       0.000       0.001     0.04
MolMec                20       0.000       0.000     0.00
kinefsm               20       0.000       0.002     0.13
nlefsm                20       0.001       0.015     0.86
DHSCF_Init            10       0.016       0.161     9.50
DHSCF1                10       0.003       0.025     1.49
INITMESH              10       0.000       0.000     0.00
DHSCF2                10       0.014       0.136     8.01
REMESH                10       0.001       0.005     0.32
REORD                290       0.000       0.034     2.01
PHION                 10       0.005       0.047     2.81
COMM_BSC             450       0.000       0.043     2.55
POISON               115       0.005       0.558    32.97
fft                  230       0.002       0.448    26.46
setup_H               95       0.012       1.169    69.08
DHSCF                105       0.014       1.438    84.98
DHSCF3               105       0.012       1.287    76.11
rhoofd               105       0.001       0.060     3.54
XC                   105       0.005       0.494    29.19
GXC-CellXC           105       0.004       0.463    27.37
gridxc@cellXC        105       0.004       0.463    27.35
vmat                 105       0.000       0.052     3.09
IterSCF               85       0.012       1.055    62.35
compute_dm            85       0.000       0.004     0.23
diagon                85       0.000       0.004     0.22
r-eigvec              85       0.000       0.003     0.18
r-buildHS             85       0.000       0.000     0.00
rdiag                 85       0.000       0.003     0.17
rdiag1                85       0.000       0.000     0.02
rdiag2                85       0.000       0.000     0.02
rdiag3                85       0.000       0.001     0.08
rdiag4                85       0.000       0.000     0.02
r-buildD              85       0.000       0.000     0.02
MIXER                 75       0.000       0.000     0.03
PostSCF               10       0.027       0.273    16.14
DHSCF4                10       0.015       0.150     8.87
dfscf                 10       0.011       0.105     6.22
overfsm               10       0.000       0.000     0.02
state_analysis        10       0.000       0.001     0.07
siesta_move           10       0.000       0.002     0.11
Analysis               1       0.000       0.000     0.01
optical                1       0.000       0.000     0.00
  

>> End of run:  28-SEP-2023  15:37:31
Job completed
