Siesta Version  : 5.0.0-alpha-123-gfb8fd7d02
Architecture    : ----
Compiler version: GNU-11.4.0
Compiler flags  : -fallow-argument-mismatch;-O3 -march=native
PP flags        : ----
Libraries       : ----
Parallelisations: none
GEMM3M support
NetCDF support
NetCDF-4 support
Lua support

Runtime information:
* Directory : /home/fnpedron/Siesta/siesta-dev/Tests/02.SpinPolarization/work/fe_noncol
* Running in serial mode.
>> Start of run:  28-SEP-2023  15:35:19

                           *********************** 
                           *  WELCOME TO SIESTA  * 
                           *********************** 

reinit: Reading from standard input
reinit: Dumping input in INPUT_TMP.12862
************************** Dump of input data file ****************************
%include ../../basejob.fdf
SystemLabel         fe_noncol
Spin non-collinear
************************** End of input data file *****************************

reinit: -----------------------------------------------------------------------
reinit: System Name: Linear Fe3 cluster
reinit: -----------------------------------------------------------------------
reinit: System Label: fe_noncol
reinit: -----------------------------------------------------------------------

initatom: Reading input for the pseudopotentials and atomic orbitals ----------
Species number:   1 Atomic number:   26 Label: Fe_nc


---- Processing specs for species: Fe_nc
Ground state valence configuration:   4s02  3d06
Reading pseudopotential information in formatted form from:
  /home/fnpedron/Siesta/siesta-dev/Tests/Pseudos/Fe_nc.psf

---- Pseudopotential check for Fe

Pseudized shells:
4s( 1.00) rc: 2.00
4p( 0.00) rc: 2.00
3d( 7.00) rc: 2.00
4f( 0.00) rc: 2.00
Valence configuration for ps generation: (assumed as above)
For Fe_nc, standard SIESTA heuristics set lmxkb to 3
 (one more than the basis l, including polarization orbitals).
Use PS.lmax or PS.KBprojectors blocks to override.

<basis_specs>
===============================================================================
Fe_nc                Z=  26    Mass=  55.845        Charge= 0.17977+309
Lmxo=2 Lmxkb= 3    BasisType=split      Semic=F
L=0  Nsemic=0  Cnfigmx=4
          i=1  nzeta=1  polorb=1  (4s)  (to be polarized perturbatively)
            splnorm:   0.15000    
               vcte:    40.000    
               rinn:  -0.90000    
               qcoe:    0.0000    
               qyuk:    0.0000    
               qwid:   0.10000E-01
                rcs:    0.0000    
            lambdas:    1.0000    
L=1  Nsemic=0  Cnfigmx=4
          i=1  nzeta=0  polorb=0  (4p)  (perturbative polarization orbital) (from 4s)
L=2  Nsemic=0  Cnfigmx=3
          i=1  nzeta=1  polorb=0  (3d)
            splnorm:   0.15000    
               vcte:    40.000    
               rinn:  -0.90000    
               qcoe:    0.0000    
               qyuk:    0.0000    
               qwid:   0.10000E-01
                rcs:    0.0000    
            lambdas:    1.0000    
-------------------------------------------------------------------------------
L=0  Nkbl=1  erefs: 0.17977+309
L=1  Nkbl=1  erefs: 0.17977+309
L=2  Nkbl=1  erefs: 0.17977+309
L=3  Nkbl=1  erefs: 0.17977+309
===============================================================================
</basis_specs>

Using PAO.SplitTailNorm
atom: Called for Fe_nc                 (Z =  26)
Maximum radius (at nrval) set to   50.00000 8518

read_vps: Pseudopotential generation method:
read_vps: ATM3      Troullier-Martins                       
Valence charge in pseudo generation:    8.00000

read_vps: Pseudopotential includes a core correction:
read_vps: Pseudo-core for xc-correction

xc_check: Exchange-correlation functional:
xc_check: Ceperley-Alder
V l=0 = -2*Zval/r beyond r=  2.8472
V l=1 = -2*Zval/r beyond r=  2.8472
V l=2 = -2*Zval/r beyond r=  2.8472
V l=3 = -2*Zval/r beyond r=  2.8472
All V_l potentials equal beyond r=  1.9894
This should be close to max(r_c) in ps generation
All pots = -2*Zval/r beyond r=  2.8472
Using large-core scheme (fit) for Vlocal

atom: Estimated core radius    2.84716
Fit of Vlocal with continuous 2nd derivative
Fitting vlocal at       1.9954
Choosing vlocal chloc cutoff:***  3.100644
qtot up to nchloc:    8.00000259
atom: Maximum radius for chlocal:    3.10064
atom: Maximum radius for r*vlocal+2*Zval:    3.10064

KBgen: Kleinman-Bylander projectors: 
GHOST: No ghost state for L =  0
   l= 0   rc=  1.991366   el= -0.319855   Ekb=  3.826230   kbcos=  0.253712
GHOST: No ghost state for L =  1
   l= 1   rc=  2.019582   el= -0.070931   Ekb=  3.335986   kbcos=  0.155791
GHOST: No ghost state for L =  2
   l= 2   rc=  1.989365   el= -0.307264   Ekb=-12.632066   kbcos= -0.657060
GHOST: No ghost state for L =  3
   l= 3   rc=  2.015527   el=  0.019538   Ekb= -1.701666   kbcos= -0.006384

KBgen: Total number of Kleinman-Bylander projectors:  16
atom: -------------------------------------------------------------------------

atom: SANKEY-TYPE ORBITALS:

SPLIT: Orbitals with angular momentum L= 0

SPLIT: Basis orbitals for state 4s

SPLIT: PAO cut-off radius determined from an
SPLIT: energy shift=  0.010000 Ry
Split based on tail norm

   izeta = 1
                 lambda =    1.000000
                     rc =    7.355669
                 energy =   -0.308198
                kinetic =    0.284874
    potential(screened) =   -0.593072
       potential(ionic) =   -5.763042

SPLIT: Orbitals with angular momentum L= 2

SPLIT: Basis orbitals for state 3d

SPLIT: PAO cut-off radius determined from an
SPLIT: energy shift=  0.010000 Ry
Split based on tail norm

   izeta = 1
                 lambda =    1.000000
                     rc =    4.584362
                 energy =   -0.296412
                kinetic =    8.773647
    potential(screened) =   -9.070058
       potential(ionic) =  -18.006145

POLgen: Perturbative polarization orbital with L=  1

POLgen: Polarization orbital for state 4s
Split based on tail norm

   izeta = 1
                     rc =    7.355669
                 energy =    0.004656
                kinetic =    0.554633
    potential(screened) =   -0.549977
       potential(ionic) =   -5.337881
atom: Total number of Sankey-type orbitals:  9

atm_pop: Valence configuration (for local Pseudopot. screening):
 4s( 2.00)                                                            
 4p( 0.00)                                                            
 3d( 6.00)                                                            
Vna: chval, zval:    8.00000   8.00000

Vna:  Cut-off radius for the neutral-atom potential:   7.355669
comcore: Pseudo-core radius Rcore=  3.839063

atom: _________________________________________________________________________

prinput: Basis input 

PAO.BasisType split     

%block ChemicalSpeciesLabel
    1   26 Fe_nc                   # Species index, atomic number, species label
%endblock ChemicalSpeciesLabel

%block PAO.Basis                 # Define Basis set
# WARNING: This information might be incomplete!
Fe_nc                 2                    # Species label, number of l-shells
 n=4   0   1 P   1                   # n, l, Nzeta, Polarization, NzetaPol
   7.356   
   1.000   
 n=3   2   1                         # n, l, Nzeta 
   4.584   
   1.000   
%endblock PAO.Basis

prinput: ----------------------------------------------------------------------

Dumping basis to NetCDF file Fe_nc.ion.nc
coor:   Atomic-coordinates input format  =     Cartesian coordinates
coor:                                            (in Bohr units)

siesta: Atomic coordinates (Bohr) and species
siesta:      0.00000   0.00000   3.64400  1        1
siesta:      0.00000   0.00000   0.00000  1        2
siesta:      0.00000   0.00000  -3.64400  1        3

siesta: System type = bulk      

initatomlists: Number of atoms, orbitals, and projectors:      3    27    48

siesta: ******************** Simulation parameters ****************************
siesta:
siesta: The following are some of the parameters of the simulation.
siesta: A complete list of the parameters used, including default values,
siesta: can be found in file out.fdf
siesta:
redata: Spin configuration                          = non-collinear
redata: Number of spin components                   = 4
redata: Time-Reversal Symmetry                      = F
redata: Spin spiral                                 = F
redata: Long output                                 =   F
redata: Number of Atomic Species                    =        1
redata: Charge density info will appear in .RHO file
redata: Write Mulliken Pop.                         = Atomic and Orbital charges
redata: Matel table size (NRTAB)                    =     1024
redata: Mesh Cutoff                                 =   100.0000 Ry
redata: Net charge of the system                    =     0.0000 |e|
redata: Min. number of SCF Iter                     =        0
redata: Max. number of SCF Iter                     =       20
redata: SCF mix quantity                            = Hamiltonian
redata: Mix DM or H after convergence               =   F
redata: Recompute H after scf cycle                 =   F
redata: Mix DM in first SCF step                    =   T
redata: Write Pulay info on disk                    =   F
redata: New DM Occupancy tolerance                  = 0.000000000001
redata: No kicks to SCF
redata: DM Mixing Weight for Kicks                  =     0.5000
redata: Require Harris convergence for SCF          =   F
redata: Harris energy tolerance for SCF             =     0.000100 eV
redata: Require DM convergence for SCF              =   T
redata: DM tolerance for SCF                        =     0.000100
redata: Require EDM convergence for SCF             =   F
redata: EDM tolerance for SCF                       =     0.001000 eV
redata: Require H convergence for SCF               =   T
redata: Hamiltonian tolerance for SCF               =     0.001000 eV
redata: Require (free) Energy convergence for SCF   =   F
redata: (free) Energy tolerance for SCF             =     0.000100 eV
redata: Using DFT-D3 dispersion                     =   F
redata: Using Saved Data (generic)                  =   F
redata: Use continuation files for DM               =   F
redata: Neglect nonoverlap interactions             =   F
redata: Method of Calculation                       = Diagonalization
redata: Electronic Temperature                      =   299.9863 K
redata: Fix the spin of the system                  =   F
redata: Max. number of TDED Iter                    =        1
redata: Number of TDED substeps                     =        3
redata: Dynamics option                             = Single-point calculation
mix.SCF: Pulay mixing                            = Pulay
mix.SCF:    Variant                              = stable
mix.SCF:    History steps                        = 8
mix.SCF:    Linear mixing weight                 =     0.010000
mix.SCF:    Mixing weight                        =     0.010000
mix.SCF:    SVD condition                        = 0.1000E-07
mix.SCF: Spin-component mixing                   all
redata: Save all siesta data in one NC              =   F
redata: ***********************************************************************

%block SCF.Mixers
  Pulay
%endblock SCF.Mixers

%block SCF.Mixer.Pulay
  # Mixing method
  method pulay
  variant stable

  # Mixing options
  weight 0.0100
  weight.linear 0.0100
  history 8
%endblock SCF.Mixer.Pulay

DM_history_depth set to one: no extrapolation allowed by default for geometry relaxation
Size of DM history Fstack: 1
Total number of electrons:    24.000000
Total ionic charge:    24.000000

siesta: k-grid: Number of k-points = 1
siesta: k-point is Gamma-only

diag: Algorithm                                     = D&C
diag: Used triangular part                          = Lower
diag: Absolute tolerance                            =  0.100E-15
diag: Orthogonalization factor                      =  0.100E-05
diag: Memory factor                                 =  1.0000


ts: **************************************************************
ts: Save H and S matrices                           =    F
ts: Save DM and EDM matrices                        =    F
ts: Only save the overlap matrix S                  =    F
ts: **************************************************************

************************ Begin: TS CHECKS AND WARNINGS ************************
************************ End: TS CHECKS AND WARNINGS **************************


                     ====================================
                        Single-point calculation
                     ====================================

outcell: Unit cell vectors (Ang):
        6.350127    0.000000    0.000000
        0.000000    6.350127    0.000000
        0.000000    0.000000   10.583544

outcell: Cell vector modules (Ang)   :    6.350127    6.350127   10.583544
outcell: Cell angles (23,13,12) (deg):     90.0000     90.0000     90.0000
outcell: Cell volume (Ang**3)        :    426.7720
Gamma-point calculation with interaction between periodic images
Some features might not work optimally:
e.g. DM initialization from atomic data
<dSpData1D:S at geom step 0
  <sparsity:sparsity for geom step 0
    nrows_g=27 nrows=27 sparsity=1.0000 nnzs=729, refcount: 7>
  <dData1D:(new from dSpData1D) n=729, refcount: 1>
refcount: 1>
new_DM -- step:     1
Initializing Density Matrix...
DM filled with atomic data (user-defined):
<dSpData2D:DM initialized from atoms
  <sparsity:sparsity for geom step 0
    nrows_g=27 nrows=27 sparsity=1.0000 nnzs=729, refcount: 8>
  <dData2D:DM n=729 m=4, refcount: 1>
refcount: 1>
     spin moment: {S} , |S| = {    1.50000    0.00000    0.00000 }     1.50000
No. of atoms with KB's overlaping orbs in proc 0. Max # of overlaps:       3      27

InitMesh: MESH = 40 x 40 x 64 = 102400
InitMesh: Mesh cutoff (required, used) =   100.000   101.065 Ry
New grid distribution [1]: sub = 2

stepf: Fermi-Dirac step function

siesta: Program's energy decomposition (eV):
siesta: Ebs     =       233.279429
siesta: Eions   =      2102.576618
siesta: Ena     =        92.089899
siesta: Ekin    =      2810.330749
siesta: Enl     =     -1815.542653
siesta: Eso     =         0.000000
siesta: Edftu   =         0.000000
siesta: DEna    =      -116.972330
siesta: DUscf   =        55.352302
siesta: DUext   =         0.000000
siesta: Ex      =     -1117.194983
siesta: Ec      =       -97.946904
siesta: Exc     =     -1215.141888
siesta: EbV     =         0.000000
siesta: eta*DQ  =         0.000000
siesta: Emadel  =         0.000000
siesta: Emeta   =         0.000000
siesta: Emolmec =         0.000000
siesta: Ekinion =         0.000000
siesta: Eharris =     -2221.689829
siesta: Etot    =     -2292.460538
siesta: FreeEng =     -2292.550282

        iscf     Eharris(eV)        E_KS(eV)     FreeEng(eV)     dDmax    Ef(eV) dHmax(eV)
   scf:    1    -2221.689829    -2292.460538    -2292.550282  0.991479 -9.391967 34.591537
     spin moment: {S} , |S| = {    1.65779    0.00000   -0.00000 }     1.65779
timer: Routine,Calls,Time,% = IterSCF        1       0.043  12.40
   scf:    2    -2300.326003    -2296.611589    -2296.694333  0.100066 -9.244199 31.530832
     spin moment: {S} , |S| = {    1.52213    0.00000    0.00000 }     1.52213
   scf:    3    -2281.000917    -2302.339509    -2302.406481  0.337807 -7.766014 21.240530
     spin moment: {S} , |S| = {    2.89250    0.00000   -0.00000 }     2.89250
   scf:    4    -2154.746883    -2271.882896    -2271.900881  0.831688 -7.719484 43.881906
     spin moment: {S} , |S| = {    1.16843    0.00000    0.00000 }     1.16843
   scf:    5    -2337.166582    -2314.720958    -2314.720958  0.558481 -3.280910 14.310777
     spin moment: {S} , |S| = {    0.93890    0.00000   -0.00000 }     0.93890
   scf:    6    -2285.768595    -2320.800296    -2320.801200  0.338413 -3.710596 14.531172
     spin moment: {S} , |S| = {    1.68712    0.00000   -0.00000 }     1.68712
   scf:    7    -2326.771852    -2323.982534    -2323.983233  0.033971 -3.902052 11.353534
     spin moment: {S} , |S| = {    1.66689    0.00000   -0.00000 }     1.66689
   scf:    8    -2313.940511    -2325.610366    -2325.610371  0.206102 -2.439099  7.376378
     spin moment: {S} , |S| = {    1.22979    0.00000   -0.00000 }     1.22979
   scf:    9    -2299.037659    -2314.397038    -2314.397038  0.089535 -1.989171 12.244536
     spin moment: {S} , |S| = {    0.99303    0.00000   -0.00000 }     0.99303
   scf:   10    -2314.784178    -2314.629286    -2314.629286  0.031638 -2.587795 12.765939
     spin moment: {S} , |S| = {    0.95891    0.00000   -0.00000 }     0.95891
   scf:   11    -2320.223791    -2317.508123    -2317.508123  0.018441 -2.694630 11.236366
     spin moment: {S} , |S| = {    0.98462    0.00000    0.00000 }     0.98462
   scf:   12    -2316.466349    -2323.891260    -2323.917504  0.545784 -4.892950  9.778136
     spin moment: {S} , |S| = {    1.30616    0.00000    0.00000 }     1.30616
   scf:   13    -2321.996180    -2323.619471    -2323.627609  0.077355 -5.085679  9.245266
     spin moment: {S} , |S| = {    1.54490    0.00000    0.00000 }     1.54490
   scf:   14    -2323.916243    -2323.781561    -2323.790797  0.008888 -5.073299  8.937588
     spin moment: {S} , |S| = {    1.51250    0.00000   -0.00000 }     1.51250
   scf:   15    -2298.312093    -2319.451478    -2319.452714  0.611522 -4.464142 13.794490
     spin moment: {S} , |S| = {    0.82979    0.00000   -0.00000 }     0.82979
   scf:   16    -2283.108622    -2318.323827    -2318.325437  0.718254 -5.370960 12.813230
     spin moment: {S} , |S| = {    1.85086    0.00000    0.00000 }     1.85086
   scf:   17    -2327.055566    -2325.980578    -2326.037396  0.248666 -4.821524  6.316472
     spin moment: {S} , |S| = {    1.15203    0.00000   -0.00000 }     1.15203
   scf:   18    -2328.350922    -2327.260059    -2327.329554  0.076789 -4.774594  4.436932
     spin moment: {S} , |S| = {    1.15439    0.00000    0.00000 }     1.15439
   scf:   19    -2327.405305    -2328.497440    -2328.497649  0.270733 -4.292555  2.453965
     spin moment: {S} , |S| = {    1.38587    0.00000    0.00000 }     1.38587
   scf:   20    -2328.670987    -2328.589306    -2328.589414  0.008419 -4.186739  2.499372
     spin moment: {S} , |S| = {    1.43520    0.00000   -0.00000 }     1.43520
SCF_NOT_CONV: SCF did not converge  in maximum number of steps.
Geom step, scf iteration, dmax:    0    20     0.183700

Using DM_out to compute the final energy and forces
No. of atoms with KB's overlaping orbs in proc 0. Max # of overlaps:       3      27

siesta: E_KS(eV) =            -2328.5893

siesta: E_KS - E_eggbox =     -2328.5893
     spin moment: {S} , |S| = {    1.43520    0.00000   -0.00000 }     1.43520

siesta: Atomic forces (eV/Ang):
----------------------------------------
   Tot    0.000000   -0.000000    0.000000
----------------------------------------
   Max    1.688310
   Res    0.795877    sqrt( Sum f_i^2 / 3N )
----------------------------------------
   Max    1.688310    constrained

Stress tensor Voigt[x,y,z,yz,xz,xy] (kbar):        4.14        4.14       -6.34        0.00        0.00        0.00
(Free)E + p*V (eV/cell)    -2328.7617
Target enthalpy (eV/cell)    -2328.5894

mulliken: Atomic and Orbital Populations:

Species: Fe_nc               

Atom      Orb        Charge      Spin       Svec
----------------------------------------------------------------
    1  1 4s         1.38371   0.07248     -0.015   0.000   0.071
    1  2 3dxy       1.23429   0.75919      0.064   0.000   0.757
    1  3 3dyz       1.29410   0.50880     -0.006   0.000   0.509
    1  4 3dz2       1.36408   0.49047      0.003   0.000   0.490
    1  5 3dxz       1.29410   0.50880     -0.006   0.000   0.509
    1  6 3dx2-y2    1.23384   0.75967      0.064   0.000   0.757
    1  7 4Ppy       0.02006   0.00269      0.000   0.000  -0.003
    1  8 4Ppz       0.02360   0.01152      0.003   0.000   0.011
    1  9 4Ppx       0.02006   0.00269      0.000   0.000  -0.003
    1     Total     7.86783   3.09989      0.106   0.000   3.098

    2  1 4s         0.98698   0.03041      0.030   0.000   0.000
    2  2 3dxy       1.53143   0.37038      0.370   0.000   0.000
    2  3 3dyz       1.26882   0.14326      0.143   0.000   0.000
    2  4 3dz2       1.25428   0.13881      0.139   0.000   0.000
    2  5 3dxz       1.26882   0.14326      0.143   0.000   0.000
    2  6 3dx2-y2    1.53235   0.36969      0.370   0.000   0.000
    2  7 4Ppy       0.10286   0.01043      0.010   0.000  -0.000
    2  8 4Ppz       0.21593   0.00684      0.007   0.000   0.000
    2  9 4Ppx       0.10286   0.01043      0.010   0.000  -0.000
    2     Total     8.26433   1.22351      1.224   0.000   0.000

    3  1 4s         1.38371   0.07248     -0.015   0.000  -0.071
    3  2 3dxy       1.23429   0.75919      0.064   0.000  -0.757
    3  3 3dyz       1.29410   0.50880     -0.006   0.000  -0.509
    3  4 3dz2       1.36408   0.49047      0.003   0.000  -0.490
    3  5 3dxz       1.29410   0.50880     -0.006   0.000  -0.509
    3  6 3dx2-y2    1.23384   0.75967      0.064   0.000  -0.757
    3  7 4Ppy       0.02006   0.00269      0.000   0.000   0.003
    3  8 4Ppz       0.02360   0.01152      0.003   0.000  -0.011
    3  9 4Ppx       0.02006   0.00269      0.000   0.000   0.003
    3     Total     7.86783   3.09989      0.106   0.000  -3.098

----------------------------------------------------------------
Total              24.00000   1.43520      1.435   0.000  -0.000


siesta: Program's energy decomposition (eV):
siesta: Ebs     =      -170.954237
siesta: Eions   =      2102.576618
siesta: Ena     =        92.089899
siesta: Ekin    =      2289.055777
siesta: Enl     =     -1445.545620
siesta: Eso     =         0.000000
siesta: Edftu   =         0.000000
siesta: DEna    =       -26.064647
siesta: DUscf   =         3.097761
siesta: DUext   =         0.000000
siesta: Ex      =     -1044.523366
siesta: Ec      =       -94.122493
siesta: Exc     =     -1138.645859
siesta: EbV     =         0.000000
siesta: eta*DQ  =         0.000000
siesta: Emadel  =         0.000000
siesta: Emeta   =         0.000000
siesta: Emolmec =         0.000000
siesta: Ekinion =         0.000000
siesta: Eharris =     -2328.670987
siesta: Etot    =     -2328.589306
siesta: FreeEng =     -2328.589414

siesta: Final energy (eV):
siesta:  Band Struct. =    -170.954237
siesta:       Kinetic =    2289.055777
siesta:       Hartree =    1377.106873
siesta:         Edftu =       0.000000
siesta:       Eso     =       0.000000
siesta:    Ext. field =       0.000000
siesta:         Exch. =   -1044.523366
siesta:         Corr. =     -94.122493
siesta:     Bulk bias =       0.000000
siesta:   Exch.-corr. =   -1138.645859
siesta:  Ion-electron =   -4664.418718
siesta:       Ion-ion =    -191.687379
siesta:       Ekinion =       0.000000
siesta: D3 dispersion =       0.000000
siesta:         Total =   -2328.589306
siesta:         Fermi =      -4.186739

siesta: Atomic forces (eV/Ang):
siesta:      1    0.000000    0.000000    1.688310
siesta:      2    0.000000   -0.000000   -0.000000
siesta:      3   -0.000000    0.000000   -1.688310
siesta: ----------------------------------------
siesta:    Tot    0.000000   -0.000000    0.000000

siesta: Stress tensor (static) (eV/Ang**3):
siesta:     0.002585   -0.000000   -0.000000
siesta:     0.000000    0.002585    0.000000
siesta:     0.000000    0.000000   -0.003960

siesta: Cell volume =        426.771969 Ang**3

siesta: Pressure (static):
siesta:                Solid            Molecule  Units
siesta:          -0.00000440         -0.00005979  Ry/Bohr**3
siesta:          -0.00040369         -0.00548932  eV/Ang**3
siesta:          -0.64679065         -8.79486325  kBar
(Free)E+ p_basis*V_orbitals  =       -2326.515209
(Free)Eharris+ p_basis*V_orbitals  =       -2326.596891
     spin moment: {S} , |S| = {    1.43520    0.00000   -0.00000 }     1.43520

cite: Please see "fe_noncol.bib" for an exhaustive BiBTeX file.
cite: Please clearly indicate Siesta version in published work: 5.0.0-alpha-123-gfb8fd7d02
cite: This calculation has made use of the following articles
cite: which are encouraged to be cited in a published work.
        Primary SIESTA paper
          DOI: www.doi.org/10.1088/0953-8984/14/11/302


timer: Elapsed wall time (sec) =       1.294
timer: CPU execution times (sec):

Routine            Calls   Time/call    Tot.time        %
siesta                 1       1.279       1.279   100.00
Setup                  1       0.038       0.038     2.98
bands                  1       0.000       0.000     0.00
KSV_init               1       0.000       0.000     0.00
IterGeom               1       1.241       1.241    96.99
geom_init              1       0.262       0.262    20.49
state_init             1       0.024       0.024     1.84
hsparse                1       0.000       0.000     0.01
overlap                1       0.023       0.023     1.81
Setup_H0               1       0.198       0.198    15.45
naefs                  2       0.000       0.000     0.01
MolMec                 2       0.000       0.000     0.00
kinefsm                2       0.011       0.022     1.73
nlefsm                 2       0.064       0.128    10.04
DHSCF_Init             1       0.048       0.048     3.75
DHSCF1                 1       0.006       0.006     0.47
INITMESH               1       0.000       0.000     0.00
DHSCF2                 1       0.042       0.042     3.28
REMESH                 1       0.003       0.003     0.22
REORD                196       0.000       0.019     1.45
PHION                  1       0.030       0.030     2.32
COMM_BSC             358       0.000       0.028     2.17
POISON                23       0.002       0.050     3.88
fft                   46       0.001       0.036     2.80
setup_H               21       0.042       0.874    68.29
DHSCF                 22       0.045       1.000    78.14
DHSCF3                22       0.042       0.918    71.74
rhoofd                22       0.011       0.247    19.31
XC                    22       0.016       0.349    27.31
GXC-CellXC            22       0.014       0.306    23.90
gridxc@cellXC         22       0.014       0.306    23.89
vmat                  22       0.009       0.199    15.52
IterSCF               20       0.042       0.849    66.33
compute_dm            20       0.001       0.011     0.89
diagon                20       0.001       0.011     0.88
cdiag                 20       0.000       0.008     0.62
cdiag1                20       0.000       0.001     0.05
cdiag2                20       0.000       0.001     0.10
cdiag3                20       0.000       0.005     0.39
cdiag4                20       0.000       0.001     0.04
MIXER                 20       0.000       0.002     0.12
PostSCF                1       0.130       0.130    10.13
DHSCF4                 1       0.082       0.082     6.40
dfscf                  1       0.072       0.072     5.63
overfsm                1       0.000       0.000     0.02
state_analysis         1       0.000       0.000     0.02
siesta_move            1       0.000       0.000     0.00
Analysis               1       0.000       0.000     0.02
optical                1       0.000       0.000     0.00
  

>> End of run:  28-SEP-2023  15:35:20
Job completed
