Siesta Version  : 5.0.0-alpha-123-gfb8fd7d02
Architecture    : ----
Compiler version: GNU-11.4.0
Compiler flags  : -fallow-argument-mismatch;-O3 -march=native
PP flags        : ----
Libraries       : ----
Parallelisations: none
GEMM3M support
NetCDF support
NetCDF-4 support
Lua support

Runtime information:
* Directory : /home/fnpedron/Siesta/siesta-dev/Tests/02.SpinPolarization/work/fe_spin
* Running in serial mode.
>> Start of run:  28-SEP-2023  15:35:15

                           *********************** 
                           *  WELCOME TO SIESTA  * 
                           *********************** 

reinit: Reading from standard input
reinit: Dumping input in INPUT_TMP.09429
************************** Dump of input data file ****************************
%include ../../basejob.fdf
SystemLabel         fe_spin
Spin polarized
************************** End of input data file *****************************

reinit: -----------------------------------------------------------------------
reinit: System Name: Linear Fe3 cluster
reinit: -----------------------------------------------------------------------
reinit: System Label: fe_spin
reinit: -----------------------------------------------------------------------

initatom: Reading input for the pseudopotentials and atomic orbitals ----------
Species number:   1 Atomic number:   26 Label: Fe_nc


---- Processing specs for species: Fe_nc
Ground state valence configuration:   4s02  3d06
Reading pseudopotential information in formatted form from:
  /home/fnpedron/Siesta/siesta-dev/Tests/Pseudos/Fe_nc.psf

---- Pseudopotential check for Fe

Pseudized shells:
4s( 1.00) rc: 2.00
4p( 0.00) rc: 2.00
3d( 7.00) rc: 2.00
4f( 0.00) rc: 2.00
Valence configuration for ps generation: (assumed as above)
For Fe_nc, standard SIESTA heuristics set lmxkb to 3
 (one more than the basis l, including polarization orbitals).
Use PS.lmax or PS.KBprojectors blocks to override.

<basis_specs>
===============================================================================
Fe_nc                Z=  26    Mass=  55.845        Charge= 0.17977+309
Lmxo=2 Lmxkb= 3    BasisType=split      Semic=F
L=0  Nsemic=0  Cnfigmx=4
          i=1  nzeta=1  polorb=1  (4s)  (to be polarized perturbatively)
            splnorm:   0.15000    
               vcte:    40.000    
               rinn:  -0.90000    
               qcoe:    0.0000    
               qyuk:    0.0000    
               qwid:   0.10000E-01
                rcs:    0.0000    
            lambdas:    1.0000    
L=1  Nsemic=0  Cnfigmx=4
          i=1  nzeta=0  polorb=0  (4p)  (perturbative polarization orbital) (from 4s)
L=2  Nsemic=0  Cnfigmx=3
          i=1  nzeta=1  polorb=0  (3d)
            splnorm:   0.15000    
               vcte:    40.000    
               rinn:  -0.90000    
               qcoe:    0.0000    
               qyuk:    0.0000    
               qwid:   0.10000E-01
                rcs:    0.0000    
            lambdas:    1.0000    
-------------------------------------------------------------------------------
L=0  Nkbl=1  erefs: 0.17977+309
L=1  Nkbl=1  erefs: 0.17977+309
L=2  Nkbl=1  erefs: 0.17977+309
L=3  Nkbl=1  erefs: 0.17977+309
===============================================================================
</basis_specs>

Using PAO.SplitTailNorm
atom: Called for Fe_nc                 (Z =  26)
Maximum radius (at nrval) set to   50.00000 8518

read_vps: Pseudopotential generation method:
read_vps: ATM3      Troullier-Martins                       
Valence charge in pseudo generation:    8.00000

read_vps: Pseudopotential includes a core correction:
read_vps: Pseudo-core for xc-correction

xc_check: Exchange-correlation functional:
xc_check: Ceperley-Alder
V l=0 = -2*Zval/r beyond r=  2.8472
V l=1 = -2*Zval/r beyond r=  2.8472
V l=2 = -2*Zval/r beyond r=  2.8472
V l=3 = -2*Zval/r beyond r=  2.8472
All V_l potentials equal beyond r=  1.9894
This should be close to max(r_c) in ps generation
All pots = -2*Zval/r beyond r=  2.8472
Using large-core scheme (fit) for Vlocal

atom: Estimated core radius    2.84716
Fit of Vlocal with continuous 2nd derivative
Fitting vlocal at       1.9954
Choosing vlocal chloc cutoff:***  3.100644
qtot up to nchloc:    8.00000259
atom: Maximum radius for chlocal:    3.10064
atom: Maximum radius for r*vlocal+2*Zval:    3.10064

KBgen: Kleinman-Bylander projectors: 
GHOST: No ghost state for L =  0
   l= 0   rc=  1.991366   el= -0.319855   Ekb=  3.826230   kbcos=  0.253712
GHOST: No ghost state for L =  1
   l= 1   rc=  2.019582   el= -0.070931   Ekb=  3.335986   kbcos=  0.155791
GHOST: No ghost state for L =  2
   l= 2   rc=  1.989365   el= -0.307264   Ekb=-12.632066   kbcos= -0.657060
GHOST: No ghost state for L =  3
   l= 3   rc=  2.015527   el=  0.019538   Ekb= -1.701666   kbcos= -0.006384

KBgen: Total number of Kleinman-Bylander projectors:  16
atom: -------------------------------------------------------------------------

atom: SANKEY-TYPE ORBITALS:

SPLIT: Orbitals with angular momentum L= 0

SPLIT: Basis orbitals for state 4s

SPLIT: PAO cut-off radius determined from an
SPLIT: energy shift=  0.010000 Ry
Split based on tail norm

   izeta = 1
                 lambda =    1.000000
                     rc =    7.355669
                 energy =   -0.308198
                kinetic =    0.284874
    potential(screened) =   -0.593072
       potential(ionic) =   -5.763042

SPLIT: Orbitals with angular momentum L= 2

SPLIT: Basis orbitals for state 3d

SPLIT: PAO cut-off radius determined from an
SPLIT: energy shift=  0.010000 Ry
Split based on tail norm

   izeta = 1
                 lambda =    1.000000
                     rc =    4.584362
                 energy =   -0.296412
                kinetic =    8.773647
    potential(screened) =   -9.070058
       potential(ionic) =  -18.006145

POLgen: Perturbative polarization orbital with L=  1

POLgen: Polarization orbital for state 4s
Split based on tail norm

   izeta = 1
                     rc =    7.355669
                 energy =    0.004656
                kinetic =    0.554633
    potential(screened) =   -0.549977
       potential(ionic) =   -5.337881
atom: Total number of Sankey-type orbitals:  9

atm_pop: Valence configuration (for local Pseudopot. screening):
 4s( 2.00)                                                            
 4p( 0.00)                                                            
 3d( 6.00)                                                            
Vna: chval, zval:    8.00000   8.00000

Vna:  Cut-off radius for the neutral-atom potential:   7.355669
comcore: Pseudo-core radius Rcore=  3.839063

atom: _________________________________________________________________________

prinput: Basis input 

PAO.BasisType split     

%block ChemicalSpeciesLabel
    1   26 Fe_nc                   # Species index, atomic number, species label
%endblock ChemicalSpeciesLabel

%block PAO.Basis                 # Define Basis set
# WARNING: This information might be incomplete!
Fe_nc                 2                    # Species label, number of l-shells
 n=4   0   1 P   1                   # n, l, Nzeta, Polarization, NzetaPol
   7.356   
   1.000   
 n=3   2   1                         # n, l, Nzeta 
   4.584   
   1.000   
%endblock PAO.Basis

prinput: ----------------------------------------------------------------------

Dumping basis to NetCDF file Fe_nc.ion.nc
coor:   Atomic-coordinates input format  =     Cartesian coordinates
coor:                                            (in Bohr units)

siesta: Atomic coordinates (Bohr) and species
siesta:      0.00000   0.00000   3.64400  1        1
siesta:      0.00000   0.00000   0.00000  1        2
siesta:      0.00000   0.00000  -3.64400  1        3

siesta: System type = bulk      

initatomlists: Number of atoms, orbitals, and projectors:      3    27    48

siesta: ******************** Simulation parameters ****************************
siesta:
siesta: The following are some of the parameters of the simulation.
siesta: A complete list of the parameters used, including default values,
siesta: can be found in file out.fdf
siesta:
redata: Spin configuration                          = collinear
redata: Number of spin components                   = 2
redata: Time-Reversal Symmetry                      = T
redata: Spin spiral                                 = F
redata: Long output                                 =   F
redata: Number of Atomic Species                    =        1
redata: Charge density info will appear in .RHO file
redata: Write Mulliken Pop.                         = Atomic and Orbital charges
redata: Matel table size (NRTAB)                    =     1024
redata: Mesh Cutoff                                 =   100.0000 Ry
redata: Net charge of the system                    =     0.0000 |e|
redata: Min. number of SCF Iter                     =        0
redata: Max. number of SCF Iter                     =       20
redata: SCF mix quantity                            = Hamiltonian
redata: Mix DM or H after convergence               =   F
redata: Recompute H after scf cycle                 =   F
redata: Mix DM in first SCF step                    =   T
redata: Write Pulay info on disk                    =   F
redata: New DM Occupancy tolerance                  = 0.000000000001
redata: No kicks to SCF
redata: DM Mixing Weight for Kicks                  =     0.5000
redata: Require Harris convergence for SCF          =   F
redata: Harris energy tolerance for SCF             =     0.000100 eV
redata: Require DM convergence for SCF              =   T
redata: DM tolerance for SCF                        =     0.000100
redata: Require EDM convergence for SCF             =   F
redata: EDM tolerance for SCF                       =     0.001000 eV
redata: Require H convergence for SCF               =   T
redata: Hamiltonian tolerance for SCF               =     0.001000 eV
redata: Require (free) Energy convergence for SCF   =   F
redata: (free) Energy tolerance for SCF             =     0.000100 eV
redata: Antiferro initial spin density              =   F
redata: Using DFT-D3 dispersion                     =   F
redata: Using Saved Data (generic)                  =   F
redata: Use continuation files for DM               =   F
redata: Neglect nonoverlap interactions             =   F
redata: Method of Calculation                       = Diagonalization
redata: Electronic Temperature                      =   299.9863 K
redata: Fix the spin of the system                  =   F
redata: Max. number of TDED Iter                    =        1
redata: Number of TDED substeps                     =        3
redata: Dynamics option                             = Single-point calculation
mix.SCF: Pulay mixing                            = Pulay
mix.SCF:    Variant                              = stable
mix.SCF:    History steps                        = 8
mix.SCF:    Linear mixing weight                 =     0.010000
mix.SCF:    Mixing weight                        =     0.010000
mix.SCF:    SVD condition                        = 0.1000E-07
mix.SCF: Spin-component mixing                   all
redata: Save all siesta data in one NC              =   F
redata: ***********************************************************************

%block SCF.Mixers
  Pulay
%endblock SCF.Mixers

%block SCF.Mixer.Pulay
  # Mixing method
  method pulay
  variant stable

  # Mixing options
  weight 0.0100
  weight.linear 0.0100
  history 8
%endblock SCF.Mixer.Pulay

DM_history_depth set to one: no extrapolation allowed by default for geometry relaxation
Size of DM history Fstack: 1
Total number of electrons:    24.000000
Total ionic charge:    24.000000

siesta: k-grid: Number of k-points = 1
siesta: k-point is Gamma-only

diag: Algorithm                                     = D&C
diag: Used triangular part                          = Lower
diag: Absolute tolerance                            =  0.100E-15
diag: Orthogonalization factor                      =  0.100E-05
diag: Memory factor                                 =  1.0000


ts: **************************************************************
ts: Save H and S matrices                           =    F
ts: Save DM and EDM matrices                        =    F
ts: Only save the overlap matrix S                  =    F
ts: **************************************************************

************************ Begin: TS CHECKS AND WARNINGS ************************
************************ End: TS CHECKS AND WARNINGS **************************


                     ====================================
                        Single-point calculation
                     ====================================

outcell: Unit cell vectors (Ang):
        6.350127    0.000000    0.000000
        0.000000    6.350127    0.000000
        0.000000    0.000000   10.583544

outcell: Cell vector modules (Ang)   :    6.350127    6.350127   10.583544
outcell: Cell angles (23,13,12) (deg):     90.0000     90.0000     90.0000
outcell: Cell volume (Ang**3)        :    426.7720
Gamma-point calculation with interaction between periodic images
Some features might not work optimally:
e.g. DM initialization from atomic data
<dSpData1D:S at geom step 0
  <sparsity:sparsity for geom step 0
    nrows_g=27 nrows=27 sparsity=1.0000 nnzs=729, refcount: 7>
  <dData1D:(new from dSpData1D) n=729, refcount: 1>
refcount: 1>
new_DM -- step:     1
Initializing Density Matrix...

initDM: WARNING: noncollinear spins in DM.InitSpin not used because nspin < 4
DM filled with atomic data (user-defined):
<dSpData2D:DM initialized from atoms
  <sparsity:sparsity for geom step 0
    nrows_g=27 nrows=27 sparsity=1.0000 nnzs=729, refcount: 8>
  <dData2D:DM n=729 m=2, refcount: 1>
refcount: 1>
     spin moment: {S} , |S| = {        0.0        0.0    7.50000 }     7.50000
No. of atoms with KB's overlaping orbs in proc 0. Max # of overlaps:       3      27

InitMesh: MESH = 40 x 40 x 64 = 102400
InitMesh: Mesh cutoff (required, used) =   100.000   101.065 Ry
New grid distribution [1]: sub = 2

stepf: Fermi-Dirac step function

siesta: Program's energy decomposition (eV):
siesta: Ebs     =       236.750031
siesta: Eions   =      2102.576618
siesta: Ena     =        92.089899
siesta: Ekin    =      2809.864626
siesta: Enl     =     -1814.901845
siesta: Eso     =         0.000000
siesta: Edftu   =         0.000000
siesta: DEna    =      -117.576646
siesta: DUscf   =        56.508724
siesta: DUext   =         0.000000
siesta: Ex      =     -1118.003240
siesta: Ec      =       -97.852654
siesta: Exc     =     -1215.855894
siesta: EbV     =         0.000000
siesta: eta*DQ  =         0.000000
siesta: Emadel  =         0.000000
siesta: Emeta   =         0.000000
siesta: Emolmec =         0.000000
siesta: Ekinion =         0.000000
siesta: Eharris =     -2220.460145
siesta: Etot    =     -2292.447754
siesta: FreeEng =     -2292.486341

        iscf     Eharris(eV)        E_KS(eV)     FreeEng(eV)     dDmax    Ef(eV) dHmax(eV)
   scf:    1    -2220.460145    -2292.447754    -2292.486341  0.993786 -9.427434 35.275903
     spin moment: {S} , |S| = {        0.0        0.0    6.00000 }     6.00000
timer: Routine,Calls,Time,% = IterSCF        1       0.030   9.50
   scf:    2    -2296.906086    -2294.724152    -2294.761586  0.023437 -9.297429 33.557680
     spin moment: {S} , |S| = {        0.0        0.0    6.00000 }     6.00000
   scf:    3    -1865.896588    -2186.561205    -2186.570652  0.972550 -6.078307 43.730123
     spin moment: {S} , |S| = {        0.0        0.0    2.00000 }     2.00000
   scf:    4    -1134.896060    -1819.225430    -1819.299698  1.539476 15.732904172.761916
     spin moment: {S} , |S| = {        0.0        0.0    1.17115 }     1.17115
   scf:    5    -1875.620242    -1964.226509    -1964.226509  1.175272 -2.403480 91.339785
     spin moment: {S} , |S| = {        0.0        0.0   -0.00000 }    -0.00000
   scf:    6    -1906.630324    -1935.875079    -1935.875079  0.064250 -1.892977 98.032624
     spin moment: {S} , |S| = {        0.0        0.0    0.00000 }     0.00000
   scf:    7    -1973.464908    -1954.992397    -1954.992397  0.075059 -2.921023 92.295409
     spin moment: {S} , |S| = {        0.0        0.0   -0.00000 }    -0.00000
   scf:    8     -823.503449    -1993.722821    -1993.774342  0.997079  1.555006 61.032974
     spin moment: {S} , |S| = {        0.0        0.0    4.00000 }     4.00000
   scf:    9    -1650.030519    -1829.211300    -1829.213872  0.573302  3.101015 77.215260
     spin moment: {S} , |S| = {        0.0        0.0    0.01614 }     0.01614
   scf:   10     -476.446112    -1919.241805    -1919.241805  0.999335 -3.930884 95.242686
     spin moment: {S} , |S| = {        0.0        0.0    0.00000 }     0.00000
   scf:   11       47.955501    -1762.791525    -1762.810278  1.171318  5.396965 94.453624
     spin moment: {S} , |S| = {        0.0        0.0    0.19418 }     0.19418
   scf:   12    -1022.359599    -2080.574323    -2080.622497  1.532130 -8.181189 57.326373
     spin moment: {S} , |S| = {        0.0        0.0    2.00000 }     2.00000
   scf:   13      -46.044050    -1758.572004    -1758.626653  1.414005  4.408022 90.333513
     spin moment: {S} , |S| = {        0.0        0.0    1.91863 }     1.91863
   scf:   14    -1763.125102    -1760.871353    -1760.911473  0.146995  4.735631 91.565667
     spin moment: {S} , |S| = {        0.0        0.0    1.94003 }     1.94003
   scf:   15    -1770.537417    -1765.710395    -1765.748207  0.104249  4.256981 88.554588
     spin moment: {S} , |S| = {        0.0        0.0    1.97635 }     1.97635
   scf:   16    -1844.155793    -1805.312207    -1805.349612  0.365517  2.357601 75.769332
     spin moment: {S} , |S| = {        0.0        0.0    1.97801 }     1.97801
   scf:   17    -1740.030820    -1773.087361    -1773.129194  0.340380  2.752421 80.596745
     spin moment: {S} , |S| = {        0.0        0.0    1.97620 }     1.97620
   scf:   18    -1786.973860    -1780.166140    -1780.174688  0.142933  2.009528 76.311707
     spin moment: {S} , |S| = {        0.0        0.0    1.99939 }     1.99939
   scf:   19    -1765.472548    -1772.913994    -1772.961545  0.204648  2.109292 79.175643
     spin moment: {S} , |S| = {        0.0        0.0    2.00000 }     2.00000
   scf:   20    -1742.989492    -1758.078482    -1758.117556  0.271991  3.240139 83.984000
     spin moment: {S} , |S| = {        0.0        0.0    2.00000 }     2.00000
SCF_NOT_CONV: SCF did not converge  in maximum number of steps.
Geom step, scf iteration, dmax:    0    20     6.172710

Using DM_out to compute the final energy and forces
No. of atoms with KB's overlaping orbs in proc 0. Max # of overlaps:       3      27

siesta: E_KS(eV) =            -1758.0785

siesta: E_KS - E_eggbox =     -1758.0785
     spin moment: {S} , |S| = {        0.0        0.0    2.00000 }     2.00000

siesta: Atomic forces (eV/Ang):
----------------------------------------
   Tot   -0.000000    0.000000   -0.000000
----------------------------------------
   Max   48.032449
   Res   22.642714    sqrt( Sum f_i^2 / 3N )
----------------------------------------
   Max   48.032449    constrained

Stress tensor Voigt[x,y,z,yz,xz,xy] (kbar):      -36.29      -36.29      707.74        0.00        0.00       -0.00
(Free)E + p*V (eV/cell)    -1814.5131
Target enthalpy (eV/cell)    -1758.1176

mulliken: Atomic and Orbital Populations:

mulliken: Spin UP 

Species: Fe_nc               
Atom  Qatom  Qorb
               4s      3dxy    3dyz    3dz2    3dxz    3dx2-y2 4Ppy    4Ppz    
               4Ppx    
   1  2.760   1.162  -0.000   0.006   0.020   0.006  -0.000   0.459   0.650
              0.459
   2  7.480   0.148   1.000   1.004   1.014   1.004   1.000   1.068   0.174
              1.068
   3  2.760   1.162  -0.000   0.006   0.020   0.006  -0.000   0.459   0.650
              0.459

mulliken: Qtot =       13.000

mulliken: Spin DOWN 

Species: Fe_nc               
Atom  Qatom  Qorb
               4s      3dxy    3dyz    3dz2    3dxz    3dx2-y2 4Ppy    4Ppz    
               4Ppx    
   1  1.738   1.096  -0.000   0.004   0.017   0.004  -0.000   0.035   0.547
              0.035
   2  7.524   0.199   1.000   1.009   1.015   1.009   1.000   1.074   0.143
              1.074
   3  1.738   1.096  -0.000   0.004   0.017   0.004  -0.000   0.035   0.547
              0.035

mulliken: Qtot =       11.000

siesta: Program's energy decomposition (eV):
siesta: Ebs     =       398.307818
siesta: Eions   =      2102.576618
siesta: Ena     =        92.089899
siesta: Ekin    =      1327.449785
siesta: Enl     =      -735.533151
siesta: Eso     =         0.000000
siesta: Edftu   =         0.000000
siesta: DEna    =       165.866573
siesta: DUscf   =       503.390666
siesta: DUext   =         0.000000
siesta: Ex      =      -919.493136
siesta: Ec      =       -89.272501
siesta: Exc     =     -1008.765636
siesta: EbV     =         0.000000
siesta: eta*DQ  =         0.000000
siesta: Emadel  =         0.000000
siesta: Emeta   =         0.000000
siesta: Emolmec =         0.000000
siesta: Ekinion =         0.000000
siesta: Eharris =     -1742.989492
siesta: Etot    =     -1758.078482
siesta: FreeEng =     -1758.117556

siesta: Final energy (eV):
siesta:  Band Struct. =     398.307818
siesta:       Kinetic =    1327.449785
siesta:       Hartree =    1379.389390
siesta:         Edftu =       0.000000
siesta:       Eso     =       0.000000
siesta:    Ext. field =       0.000000
siesta:         Exch. =    -919.493136
siesta:         Corr. =     -89.272501
siesta:     Bulk bias =       0.000000
siesta:   Exch.-corr. =   -1008.765636
siesta:  Ion-electron =   -3264.464641
siesta:       Ion-ion =    -191.687379
siesta:       Ekinion =       0.000000
siesta: D3 dispersion =       0.000000
siesta:         Total =   -1758.078482
siesta:         Fermi =       3.240139

siesta: Atomic forces (eV/Ang):
siesta:      1   -0.000000   -0.000000  -48.032449
siesta:      2   -0.000000    0.000000    0.000000
siesta:      3    0.000000    0.000000   48.032449
siesta: ----------------------------------------
siesta:    Tot   -0.000000    0.000000   -0.000000

siesta: Stress tensor (static) (eV/Ang**3):
siesta:    -0.022650   -0.000000    0.000000
siesta:    -0.000000   -0.022650    0.000000
siesta:     0.000000    0.000000    0.441734

siesta: Cell volume =        426.771969 Ang**3

siesta: Pressure (static):
siesta:                Solid            Molecule  Units
siesta:          -0.00143923          0.00013660  Ry/Bohr**3
siesta:          -0.13214440          0.01254179  eV/Ang**3
siesta:        -211.71867413         20.09416115  kBar
(Free)E+ p_basis*V_orbitals  =       -1756.043351
(Free)Eharris+ p_basis*V_orbitals  =       -1740.954361
     spin moment: {S} , |S| = {        0.0        0.0    2.00000 }     2.00000

cite: Please see "fe_spin.bib" for an exhaustive BiBTeX file.
cite: Please clearly indicate Siesta version in published work: 5.0.0-alpha-123-gfb8fd7d02
cite: This calculation has made use of the following articles
cite: which are encouraged to be cited in a published work.
        Primary SIESTA paper
          DOI: www.doi.org/10.1088/0953-8984/14/11/302


timer: Elapsed wall time (sec) =       1.004
timer: CPU execution times (sec):

Routine            Calls   Time/call    Tot.time        %
siesta                 1       0.997       0.997   100.00
Setup                  1       0.038       0.038     3.78
bands                  1       0.000       0.000     0.00
KSV_init               1       0.000       0.000     0.00
IterGeom               1       0.958       0.958    96.14
geom_init              1       0.251       0.251    25.14
state_init             1       0.024       0.024     2.44
hsparse                1       0.000       0.000     0.01
overlap                1       0.024       0.024     2.39
Setup_H0               1       0.197       0.197    19.76
naefs                  2       0.000       0.000     0.01
MolMec                 2       0.000       0.000     0.00
kinefsm                2       0.011       0.022     2.23
nlefsm                 2       0.064       0.129    12.94
DHSCF_Init             1       0.047       0.047     4.67
DHSCF1                 1       0.006       0.006     0.58
INITMESH               1       0.000       0.000     0.00
DHSCF2                 1       0.041       0.041     4.08
REMESH                 1       0.003       0.003     0.28
REORD                106       0.000       0.008     0.76
PHION                  1       0.029       0.029     2.90
COMM_BSC             180       0.000       0.010     1.01
POISON                23       0.002       0.048     4.86
fft                   46       0.001       0.037     3.67
setup_H               21       0.030       0.630    63.20
DHSCF                 22       0.033       0.726    72.86
DHSCF3                22       0.030       0.658    66.00
rhoofd                22       0.007       0.147    14.78
XC                    22       0.014       0.300    30.12
GXC-CellXC            22       0.013       0.279    28.04
gridxc@cellXC         22       0.013       0.279    28.03
vmat                  22       0.005       0.119    11.89
IterSCF               20       0.030       0.608    60.98
compute_dm            20       0.000       0.004     0.41
diagon                20       0.000       0.004     0.40
r-eigvec              40       0.000       0.003     0.29
r-buildHS             40       0.000       0.000     0.01
rdiag                 40       0.000       0.003     0.28
rdiag1                40       0.000       0.000     0.01
rdiag2                40       0.000       0.000     0.03
rdiag3                40       0.000       0.002     0.20
rdiag4                40       0.000       0.000     0.02
r-buildD              20       0.000       0.001     0.08
MIXER                 20       0.000       0.001     0.10
PostSCF                1       0.099       0.099     9.96
DHSCF4                 1       0.068       0.068     6.86
dfscf                  1       0.059       0.059     5.95
overfsm                1       0.000       0.000     0.03
state_analysis         1       0.000       0.000     0.03
siesta_move            1       0.000       0.000     0.00
Analysis               1       0.000       0.000     0.04
optical                1       0.000       0.000     0.00
  

>> End of run:  28-SEP-2023  15:35:16
Job completed
